# Blender v2.78 (sub 0) OBJ File: ''
# www.blender.org
mtllib ebermejo_f_waist_B.mtl
o ebermejo_f_standard.001_ebermejo_f_standard.008
v 0.145537 -0.097832 0.044760
v 0.146706 -0.094873 0.019739
v 0.138855 -0.101137 0.069433
v 0.127118 -0.104115 0.091234
v 0.111153 -0.106082 0.110650
v 0.094842 -0.111006 0.127981
v 0.141475 -0.091950 -0.003020
v 0.118144 -0.086636 -0.041341
v 0.131649 -0.089030 -0.023879
v 0.084086 -0.083164 -0.062264
v 0.102175 -0.084691 -0.054412
v 0.089789 -0.423831 -0.052664
v 0.054890 -0.415501 -0.047729
v 0.147631 -0.433788 -0.035558
v 0.167469 -0.437156 -0.014390
v 0.173348 -0.447728 0.050854
v 0.177497 -0.442864 0.016277
v 0.128879 -0.453605 0.109044
v 0.096774 -0.451043 0.116202
v 0.019066 -0.437913 0.072906
v 0.038179 -0.442662 0.093497
v 0.039956 -0.120100 0.161427
v 0.077064 -0.114461 0.142928
v 0.057947 -0.117188 0.154276
v 0.025842 -0.414561 -0.030051
v 0.010643 -0.419751 -0.003651
v 0.155993 -0.453020 0.084250
v 0.120915 -0.430949 -0.047609
v 0.008832 -0.432607 0.049525
v 0.018106 -0.101244 0.160926
v 0.065125 -0.448211 0.109303
v 0.006374 -0.426816 0.023839
v 0.044292 -0.080035 -0.066466
v 0.022925 -0.077770 -0.063060
v 0.064569 -0.081671 -0.065696
v 0.002461 -0.074112 -0.056076
v -0.002620 -0.096249 0.160889
v -0.144729 -0.094205 0.013878
v -0.145489 -0.096932 0.037261
v -0.130623 -0.103786 0.082545
v -0.140386 -0.100059 0.060814
v -0.101364 -0.110681 0.119312
v -0.117234 -0.107112 0.101769
v -0.138486 -0.091853 -0.008138
v -0.128058 -0.089767 -0.028221
v -0.114031 -0.087791 -0.044754
v -0.097547 -0.085845 -0.057074
v -0.079488 -0.083967 -0.064878
v -0.054546 -0.415924 -0.047784
v -0.088944 -0.424081 -0.052764
v -0.147323 -0.433853 -0.034901
v -0.167954 -0.437254 -0.013991
v -0.173317 -0.447655 0.051542
v -0.178689 -0.443241 0.016841
v -0.093238 -0.452090 0.116773
v -0.126832 -0.454144 0.109371
v -0.033947 -0.443007 0.091919
v -0.015363 -0.437797 0.070300
v -0.048919 -0.119519 0.156766
v -0.066068 -0.116903 0.148047
v -0.084069 -0.114125 0.135323
v -0.009030 -0.419583 -0.006481
v -0.025632 -0.414762 -0.031240
v -0.154878 -0.452676 0.085048
v -0.120601 -0.430969 -0.046897
v -0.005640 -0.432829 0.046328
v -0.024378 -0.100817 0.160931
v -0.061022 -0.449156 0.108909
v -0.004199 -0.426850 0.020286
v -0.018405 -0.078193 -0.064586
v -0.039387 -0.080692 -0.068307
v -0.060068 -0.082396 -0.067933
l 50 65
l 51 65
l 33 35
l 26 32
l 19 31
l 21 31
l 58 66
l 47 48
l 42 61
l 59 60
l 23 24
l 55 56
l 53 54
l 52 54
l 49 50
l 6 23
l 22 24
l 16 17
l 51 52
l 15 17
l 20 21
l 22 30
l 60 61
l 14 15
l 10 11
l 18 19
l 49 63
l 48 72
l 57 58
l 46 47
l 12 13
l 57 68
l 1 3
l 55 68
l 14 28
l 20 29
l 33 34
l 1 2
l 13 25
l 34 36
l 18 27
l 16 27
l 7 9
l 12 28
l 59 67
l 10 35
l 29 32
l 25 26
l 8 11
l 39 41
l 70 71
l 38 39
l 38 44
l 44 45
l 3 4
l 42 43
l 8 9
l 40 43
l 40 41
l 71 72
l 62 63
l 62 69
l 45 46
l 4 5
l 36 70
l 2 7
l 5 6
l 30 37
l 66 69
l 53 64
l 56 64
l 37 67
