# Blender v2.78 (sub 0) OBJ File: ''
# www.blender.org
mtllib ebermejo_f_upperlegs.mtl
o ebermejo_f_standard.000_ebermejo_f_standard.004
v 0.186409 -0.217076 0.022483
v 0.187107 -0.241425 0.015980
v 0.182165 -0.214636 -0.007317
v 0.180920 -0.241206 -0.012340
v 0.184762 -0.193218 0.023513
v 0.181634 -0.189668 -0.004907
v 0.183073 -0.222376 0.047792
v 0.186404 -0.247128 0.044543
v 0.129636 -0.356009 -0.067042
v 0.097204 -0.355917 -0.076245
v 0.127542 -0.341277 -0.078131
v 0.099811 -0.345289 -0.085891
v 0.067117 -0.340940 -0.090541
v 0.062285 -0.350695 -0.078582
v 0.027729 -0.330858 -0.091874
v 0.025272 -0.340493 -0.077853
v 0.036262 -0.217607 -0.104488
v 0.036874 -0.196135 -0.098305
v 0.066867 -0.218067 -0.104233
v 0.066678 -0.196708 -0.097374
v 0.183253 -0.379340 0.055724
v 0.179346 -0.415145 0.052536
v 0.191685 -0.375285 0.017410
v 0.184636 -0.410223 0.016677
v 0.122270 -0.402052 -0.053839
v 0.126558 -0.377316 -0.060118
v 0.152985 -0.404558 -0.039504
v 0.158643 -0.376310 -0.045172
v 0.031257 -0.247559 0.148735
v 0.014003 -0.249306 0.152632
v 0.027013 -0.269468 0.140625
v 0.012911 -0.269705 0.144093
v 0.169882 -0.207062 0.073585
v 0.151651 -0.212446 0.093704
v 0.172488 -0.227304 0.070979
v 0.153779 -0.232342 0.090793
v 0.057164 -0.359326 -0.060762
v 0.023586 -0.347267 -0.058886
v 0.161081 -0.418140 0.086258
v 0.163170 -0.380915 0.090416
v 0.136320 -0.386458 0.114910
v 0.104235 -0.388255 0.124452
v 0.133547 -0.421226 0.112477
v 0.100957 -0.420101 0.121272
v 0.013876 -0.346412 0.074158
v 0.031426 -0.331271 0.095923
v 0.014298 -0.333634 0.072591
v 0.025540 -0.316358 0.099242
v 0.031034 -0.302951 -0.106027
v 0.064768 -0.308597 -0.105673
v 0.029924 -0.319275 -0.099444
v 0.065826 -0.325696 -0.099784
v 0.089789 -0.423831 -0.052664
v 0.054890 -0.415501 -0.047729
v 0.085548 -0.392125 -0.059578
v 0.044162 -0.375601 -0.049308
v 0.147631 -0.433788 -0.035558
v 0.167469 -0.437156 -0.014390
v 0.175513 -0.405923 -0.016087
v 0.173348 -0.447728 0.050854
v 0.177497 -0.442864 0.016277
v 0.128879 -0.453605 0.109044
v 0.096774 -0.451043 0.116202
v 0.019066 -0.437913 0.072906
v 0.038179 -0.442662 0.093497
v 0.019925 -0.414386 0.082043
v 0.040653 -0.417288 0.101273
v 0.077141 -0.291403 0.119081
v 0.106017 -0.274113 0.115818
v 0.067674 -0.269286 0.122240
v 0.103250 -0.252826 0.115765
v 0.177215 -0.249945 0.069377
v 0.025842 -0.414561 -0.030051
v 0.010643 -0.419751 -0.003651
v 0.016642 -0.382561 -0.023979
v 0.006716 -0.393308 0.004215
v 0.180019 -0.200256 0.049791
v 0.182866 -0.373631 -0.019088
v 0.123767 -0.483566 0.103267
v 0.092512 -0.481572 0.108937
v 0.118371 -0.512850 0.097030
v 0.087501 -0.510935 0.101197
v 0.016096 -0.488556 0.028972
v 0.022071 -0.492243 0.052062
v 0.012083 -0.459653 0.038757
v 0.019732 -0.464294 0.062667
v 0.021970 -0.545626 0.012882
v 0.024374 -0.550661 0.034670
v 0.020113 -0.517519 0.021142
v 0.024014 -0.521785 0.044530
v 0.155993 -0.453020 0.084250
v 0.165262 -0.478742 0.049506
v 0.149009 -0.482880 0.080592
v 0.158620 -0.507879 0.047252
v 0.143416 -0.512199 0.076307
v 0.120915 -0.430949 -0.047609
v 0.007502 -0.410376 0.059640
v 0.008832 -0.432607 0.049525
v 0.018765 -0.451776 -0.010096
v 0.035988 -0.450264 -0.032688
v 0.027115 -0.483436 -0.015281
v 0.043573 -0.482363 -0.035436
v 0.144914 -0.462619 -0.032577
v 0.162665 -0.466963 -0.011182
v 0.142787 -0.490593 -0.031863
v 0.158706 -0.495352 -0.010412
v 0.170531 -0.472753 0.017978
v 0.164372 -0.501805 0.017036
v 0.152462 -0.535905 0.045025
v 0.137413 -0.540236 0.072553
v 0.147132 -0.563448 0.043226
v 0.131214 -0.567476 0.068494
v 0.159379 -0.529593 0.015417
v 0.154780 -0.556889 0.014351
v 0.151477 -0.550012 -0.010862
v 0.155419 -0.522981 -0.010853
v 0.141123 -0.517577 -0.031567
v 0.138456 -0.544423 -0.030446
v 0.120623 -0.540612 -0.044138
v 0.121056 -0.514230 -0.045320
v 0.099050 -0.538402 -0.049505
v 0.076244 -0.537438 -0.048117
v 0.096561 -0.511659 -0.050991
v 0.072230 -0.510449 -0.048299
v 0.033784 -0.512552 -0.020332
v 0.049838 -0.511128 -0.038149
v 0.038525 -0.539929 -0.025918
v 0.055098 -0.538174 -0.040467
v 0.049014 -0.617875 -0.043134
v 0.067880 -0.616172 -0.048345
v 0.054126 -0.646776 -0.045920
v 0.072494 -0.644839 -0.048633
v 0.086208 -0.615474 -0.048467
v 0.103378 -0.615048 -0.049112
v 0.089357 -0.642861 -0.051477
v 0.107219 -0.642108 -0.052194
v 0.134755 -0.647645 -0.031140
v 0.123050 -0.643411 -0.045998
v 0.132438 -0.620975 -0.028830
v 0.120022 -0.616579 -0.043320
v 0.145768 -0.627035 -0.011042
v 0.145985 -0.652945 -0.012515
v 0.147217 -0.633835 0.011944
v 0.144209 -0.659142 0.009997
v 0.129677 -0.664373 0.032246
v 0.132564 -0.639693 0.035305
v 0.025353 -0.630943 0.005369
v 0.024284 -0.625712 -0.013552
v 0.028438 -0.658552 -0.000729
v 0.029233 -0.653370 -0.020300
v 0.053205 -0.666915 0.034445
v 0.066633 -0.667839 0.055727
v 0.050586 -0.640313 0.045083
v 0.066941 -0.643010 0.065996
v 0.142333 -0.589504 0.041580
v 0.150333 -0.582826 0.013544
v 0.147591 -0.575843 -0.010722
v 0.135014 -0.569937 -0.028990
v 0.042029 -0.565643 -0.031917
v 0.059573 -0.563672 -0.043180
v 0.024534 -0.578151 0.025153
v 0.022660 -0.572678 0.004285
v 0.096121 -0.619825 0.076593
v 0.120237 -0.619081 0.062340
v 0.100321 -0.593882 0.078698
v 0.125222 -0.593490 0.064927
v 0.148491 -0.608392 0.012675
v 0.145444 -0.601258 -0.010695
v 0.133019 -0.595260 -0.028098
v 0.102014 -0.589497 -0.047223
v 0.119466 -0.591226 -0.041825
v 0.083375 -0.589018 -0.047341
v 0.045618 -0.591275 -0.037925
v 0.063736 -0.589217 -0.046118
v 0.023635 -0.599189 -0.004754
v 0.025663 -0.605061 0.015066
v 0.091721 -0.668068 0.062155
v 0.116102 -0.667255 0.052854
v 0.093021 -0.645126 0.071897
v 0.116405 -0.643361 0.057295
v 0.091723 -0.690182 0.051408
v 0.069459 -0.690755 0.045260
v 0.109900 -0.669937 -0.054812
v 0.093449 -0.670775 -0.054891
v 0.125145 -0.671117 -0.048137
v 0.141344 -0.685239 0.009086
v 0.146954 -0.678550 -0.015349
v 0.128707 -0.690486 0.031445
v 0.113199 -0.689573 0.046757
v 0.034613 -0.683613 -0.005925
v 0.036838 -0.680820 -0.022670
v 0.060367 -0.675508 -0.044296
v 0.077038 -0.673461 -0.048741
v 0.138654 -0.673770 -0.034930
v 0.012423 -0.362845 -0.013211
v 0.004618 -0.376823 0.014522
v 0.005238 -0.357568 -0.003858
v 0.001788 -0.368794 0.024794
v 0.038036 -0.469955 0.084619
v 0.037041 -0.499681 0.075243
v 0.036845 -0.528950 0.066667
v 0.035403 -0.556677 0.056349
v 0.035223 -0.584099 0.046011
v 0.036063 -0.637645 0.025037
v 0.036007 -0.610932 0.035385
v 0.038070 -0.663817 0.015993
v 0.043834 -0.689485 0.011322
v 0.079290 -0.337685 0.122603
v 0.051899 -0.350515 0.114247
v 0.075942 -0.362967 0.122690
v 0.047841 -0.370650 0.112050
v 0.002794 -0.350946 0.042825
v 0.006507 -0.350768 0.057277
v 0.004639 -0.344802 0.043420
v 0.008069 -0.342324 0.056201
v 0.138219 -0.615061 0.039432
v 0.119486 -0.565933 -0.042275
v 0.079833 -0.563174 -0.047280
v 0.100517 -0.564013 -0.047545
v 0.048956 -0.615873 0.056828
v 0.069426 -0.618270 0.072723
v 0.051082 -0.589363 0.065391
v 0.073105 -0.592325 0.078283
v 0.053335 -0.562492 0.075466
v 0.077773 -0.566012 0.085404
v 0.056642 -0.536150 0.084480
v 0.082382 -0.539112 0.093270
v 0.075141 -0.240741 0.132726
v 0.051309 -0.244803 0.141752
v 0.044328 -0.269588 0.133805
v 0.010389 -0.320020 0.097659
v 0.003125 -0.328794 0.079915
v 0.002988 -0.338707 0.057149
v 0.002812 -0.342414 0.042742
v 0.001403 -0.356605 0.040025
v 0.024523 -0.376239 0.095140
v 0.008865 -0.378241 0.074147
v 0.021713 -0.393687 0.089660
v 0.007688 -0.392546 0.068337
v 0.195853 -0.338394 0.021884
v 0.185710 -0.342759 0.059805
v 0.092327 -0.371261 -0.065066
v 0.065480 -0.241363 -0.109338
v 0.034738 -0.240431 -0.109074
v 0.161023 -0.349774 -0.052302
v 0.187746 -0.332932 -0.022815
v 0.044221 -0.392933 0.107258
v 0.045049 -0.297295 0.115611
v 0.052689 -0.311860 0.112855
v 0.002260 -0.342382 0.030932
v 0.184089 -0.306062 0.063156
v 0.194832 -0.302468 0.029822
v 0.022931 -0.286496 0.132036
v 0.012078 -0.285953 0.134622
v 0.003711 -0.403690 0.033342
v 0.002735 -0.387769 0.042837
v 0.019365 -0.349015 -0.038161
v 0.000828 -0.342089 -0.027837
v 0.000985 -0.334507 -0.040458
v 0.005843 -0.345557 -0.026196
v 0.069176 -0.418706 0.115794
v 0.065125 -0.448211 0.109303
v 0.062523 -0.477724 0.101379
v 0.059275 -0.507641 0.093167
v 0.057343 -0.692365 0.027205
v 0.190015 -0.268756 0.008400
v 0.182269 -0.266838 -0.020113
v 0.103259 -0.230720 0.122139
v 0.011867 -0.357373 0.075955
v 0.030347 -0.347103 0.097933
v 0.006374 -0.426816 0.023839
v 0.189299 -0.270289 0.036323
v 0.018537 -0.485476 0.007043
v 0.012223 -0.455537 0.014930
v 0.062914 -0.451467 -0.047350
v 0.092761 -0.455651 -0.051481
v 0.068222 -0.482823 -0.047589
v 0.094532 -0.484561 -0.051348
v 0.120892 -0.459374 -0.045916
v 0.120470 -0.487297 -0.045665
v 0.106036 -0.568237 0.083119
v 0.002554 -0.376274 0.050614
v 0.000580 -0.333501 -0.055184
v 0.163179 -0.314436 0.095481
v 0.164147 -0.345783 0.092143
v 0.080157 -0.313476 0.120439
v 0.107741 -0.299162 0.119889
v 0.033988 -0.289329 0.125024
v 0.004242 -0.359004 0.057192
v 0.072830 -0.389902 0.120191
v 0.107103 -0.356616 0.125874
v 0.137622 -0.352006 0.116060
v 0.133273 -0.263329 0.106137
v 0.157651 -0.254993 0.090774
v 0.130404 -0.240805 0.104862
v 0.002481 -0.346547 -0.011762
v 0.001381 -0.340892 -0.018674
v 0.054421 -0.330660 0.114055
v 0.026660 -0.542185 -0.007655
v 0.023345 -0.514553 -0.000083
v 0.029095 -0.568517 -0.015346
v 0.031386 -0.594524 -0.023324
v 0.033990 -0.621230 -0.030894
v 0.039182 -0.648348 -0.036624
v 0.046751 -0.677095 -0.036525
v 0.000989 -0.328274 -0.070807
v 0.000281 -0.319268 -0.085060
v 0.154605 -0.192564 -0.056459
v 0.171203 -0.190208 -0.032819
v 0.128968 -0.220141 0.109176
v -0.000532 -0.250450 0.152847
v 0.171899 -0.316329 -0.046200
v 0.152982 -0.332301 -0.063773
v 0.144789 -0.319500 -0.074245
v 0.159340 -0.307567 -0.061685
v 0.169730 -0.242047 -0.037621
v 0.169267 -0.266235 -0.043786
v 0.171605 -0.215786 -0.034760
v 0.124090 -0.326757 -0.085873
v 0.095013 -0.311062 -0.099466
v 0.098086 -0.329140 -0.094380
v 0.155769 -0.217598 -0.057826
v 0.154722 -0.243570 -0.059817
v 0.150254 -0.302488 -0.069484
v 0.152516 -0.288315 -0.067198
v 0.166780 -0.289107 -0.052228
v 0.120137 -0.310275 -0.090280
v 0.138935 -0.307180 -0.079216
v 0.000912 -0.309357 -0.093876
v 0.136862 -0.290232 -0.080327
v 0.092765 -0.290232 -0.103742
v 0.117448 -0.291077 -0.092635
v 0.116385 -0.219133 -0.089534
v 0.115289 -0.243858 -0.093426
v 0.093110 -0.218611 -0.099169
v 0.092254 -0.242189 -0.103645
v 0.137077 -0.218999 -0.076100
v 0.135322 -0.194471 -0.073405
v 0.114748 -0.195475 -0.085372
v 0.092177 -0.196308 -0.093334
v 0.136741 -0.245167 -0.078495
v 0.091437 -0.266517 -0.105505
v 0.062880 -0.264916 -0.111463
v 0.032360 -0.262687 -0.110164
v 0.001886 -0.263678 -0.106555
v 0.001589 -0.240810 -0.106755
v 0.112263 -0.540643 0.090791
v 0.001620 -0.355069 0.008512
v 0.181362 -0.277473 0.068754
v 0.180858 -0.293199 -0.031149
v 0.192105 -0.298240 -0.003940
v 0.010386 -0.367209 0.076650
v 0.027656 -0.361551 0.098203
v 0.161956 -0.282661 0.093484
v 0.108359 -0.326641 0.124151
v 0.002891 -0.367323 0.055916
v 0.153114 -0.267339 -0.063122
v 0.136074 -0.269280 -0.079701
v 0.115936 -0.268428 -0.094257
v 0.063225 -0.287610 -0.110226
v 0.031436 -0.284550 -0.109392
v 0.001611 -0.283470 -0.102549
v 0.022944 -0.303103 0.117372
v 0.011303 -0.297781 0.125197
v 0.019144 -0.296786 0.126114
v 0.002187 -0.286543 0.134117
v 0.002643 -0.298991 0.123821
v 0.011677 -0.308058 0.113223
v 0.002990 -0.309649 0.111124
v 0.003186 -0.322950 0.099308
v 0.001352 -0.194592 -0.099013
v 0.077692 -0.706274 0.036635
v 0.092642 -0.707800 0.038722
v 0.108726 -0.705928 0.038994
v 0.136621 -0.289519 0.111395
v 0.137912 -0.320137 0.115591
v 0.001366 -0.299419 -0.097169
v 0.001431 -0.217342 -0.103875
v 0.001090 -0.270230 0.143837
v -0.179482 -0.244233 -0.012927
v -0.185853 -0.245468 0.014389
v -0.179541 -0.217466 -0.009205
v -0.184219 -0.219840 0.019560
v -0.182679 -0.194613 0.019467
v -0.178191 -0.191957 -0.008612
v -0.181771 -0.224061 0.045866
v -0.185849 -0.249520 0.043295
v -0.096582 -0.345771 -0.085303
v -0.095019 -0.355515 -0.075987
v -0.124549 -0.341843 -0.077122
v -0.127764 -0.356023 -0.067226
v -0.023106 -0.340040 -0.077943
v -0.059981 -0.350199 -0.078617
v -0.026203 -0.330332 -0.092008
v -0.063969 -0.340720 -0.090750
v -0.032967 -0.218978 -0.104524
v -0.063327 -0.220705 -0.104410
v -0.033690 -0.196714 -0.099031
v -0.063697 -0.198581 -0.097940
v -0.183385 -0.380498 0.056246
v -0.191573 -0.375956 0.018197
v -0.179250 -0.415779 0.053107
v -0.185601 -0.410982 0.017754
v -0.157812 -0.376252 -0.044706
v -0.125814 -0.377286 -0.060189
v -0.152880 -0.404980 -0.039350
v -0.122282 -0.401826 -0.054051
v -0.011719 -0.270609 0.142585
v -0.015914 -0.250217 0.150934
v -0.026752 -0.271435 0.138794
v -0.033519 -0.249354 0.145892
v -0.154270 -0.232834 0.090504
v -0.153369 -0.214319 0.091319
v -0.172663 -0.228669 0.069750
v -0.169883 -0.208401 0.070465
v -0.021916 -0.346483 -0.059321
v -0.054954 -0.359449 -0.061892
v -0.160812 -0.418780 0.086656
v -0.163352 -0.383020 0.090066
v -0.097155 -0.420894 0.122037
v -0.100192 -0.389729 0.125144
v -0.131200 -0.421949 0.113217
v -0.134073 -0.388316 0.115674
v -0.019923 -0.317283 0.097382
v -0.025155 -0.331859 0.094786
v -0.007944 -0.333422 0.070786
v -0.009149 -0.345633 0.071568
v -0.027885 -0.302980 -0.104649
v -0.027640 -0.318757 -0.098845
v -0.061165 -0.309518 -0.105430
v -0.062027 -0.326113 -0.100183
v -0.043783 -0.376655 -0.049926
v -0.054546 -0.415924 -0.047784
v -0.084729 -0.392255 -0.059796
v -0.088944 -0.424081 -0.052764
v -0.147323 -0.433853 -0.034901
v -0.167954 -0.437254 -0.013991
v -0.175378 -0.406501 -0.015603
v -0.173317 -0.447655 0.051542
v -0.178689 -0.443241 0.016841
v -0.093238 -0.452090 0.116773
v -0.126832 -0.454144 0.109371
v -0.035419 -0.417703 0.100147
v -0.033947 -0.443007 0.091919
v -0.015350 -0.414120 0.079725
v -0.015363 -0.437797 0.070300
v -0.102511 -0.255757 0.116288
v -0.103202 -0.277524 0.116838
v -0.066261 -0.271535 0.121233
v -0.072885 -0.293904 0.118951
v -0.176718 -0.251930 0.068474
v -0.004715 -0.392567 0.001534
v -0.009030 -0.419583 -0.006481
v -0.017099 -0.382520 -0.025073
v -0.025632 -0.414762 -0.031240
v -0.179559 -0.201069 0.046308
v -0.182072 -0.373782 -0.018022
v -0.121918 -0.484609 0.104003
v -0.117206 -0.513759 0.098158
v -0.089489 -0.482735 0.109709
v -0.085717 -0.512312 0.102438
v -0.017194 -0.465097 0.060279
v -0.019988 -0.493339 0.050193
v -0.010029 -0.460354 0.035889
v -0.015106 -0.489470 0.026705
v -0.022477 -0.523426 0.042944
v -0.023308 -0.552067 0.034056
v -0.018965 -0.519150 0.019434
v -0.021622 -0.547069 0.012030
v -0.154878 -0.452676 0.085048
v -0.142773 -0.512731 0.077086
v -0.148182 -0.483135 0.081467
v -0.158289 -0.507905 0.047888
v -0.165111 -0.478372 0.050458
v -0.120601 -0.430969 -0.046897
v -0.005640 -0.432829 0.046328
v -0.003572 -0.410043 0.056551
v -0.043449 -0.483120 -0.035744
v -0.035630 -0.450584 -0.033694
v -0.026500 -0.484380 -0.016942
v -0.017618 -0.452071 -0.012417
v -0.159185 -0.495168 -0.009791
v -0.163170 -0.466672 -0.010702
v -0.143084 -0.490639 -0.031051
v -0.145016 -0.462619 -0.031636
v -0.171201 -0.472746 0.018594
v -0.164905 -0.501720 0.017743
v -0.132001 -0.568516 0.070435
v -0.137664 -0.541258 0.073401
v -0.147421 -0.564164 0.044255
v -0.152444 -0.536534 0.046069
v -0.155283 -0.557519 0.015430
v -0.159992 -0.530113 0.016542
v -0.155718 -0.523186 -0.010263
v -0.151964 -0.550472 -0.010324
v -0.138341 -0.544758 -0.029896
v -0.140950 -0.517931 -0.030870
v -0.120829 -0.514736 -0.044807
v -0.120201 -0.541061 -0.043489
v -0.071876 -0.511341 -0.047977
v -0.075861 -0.538230 -0.047849
v -0.096585 -0.512432 -0.050595
v -0.098536 -0.538955 -0.048860
v -0.054998 -0.538921 -0.040675
v -0.049610 -0.512216 -0.038427
v -0.038508 -0.541021 -0.026587
v -0.033294 -0.514070 -0.021525
v -0.071566 -0.644834 -0.048132
v -0.067039 -0.617037 -0.047387
v -0.053425 -0.646897 -0.044623
v -0.048586 -0.618837 -0.041579
v -0.106376 -0.642444 -0.051523
v -0.102780 -0.616125 -0.047878
v -0.088585 -0.643120 -0.050293
v -0.085778 -0.616229 -0.047426
v -0.120034 -0.617637 -0.042505
v -0.123000 -0.643881 -0.045483
v -0.133089 -0.622034 -0.028486
v -0.135558 -0.648237 -0.030743
v -0.146526 -0.653803 -0.012329
v -0.146128 -0.628016 -0.010639
v -0.146567 -0.660274 0.010231
v -0.149205 -0.635334 0.012311
v -0.135236 -0.641172 0.035655
v -0.132671 -0.665591 0.032827
v -0.025843 -0.631989 0.005533
v -0.029330 -0.659575 -0.000026
v -0.024584 -0.626925 -0.012601
v -0.028796 -0.653865 -0.019025
v -0.068021 -0.644230 0.066205
v -0.068380 -0.668782 0.055862
v -0.052006 -0.641327 0.045145
v -0.054582 -0.668005 0.034515
v -0.151466 -0.583824 0.014149
v -0.142925 -0.590721 0.042247
v -0.135182 -0.570718 -0.028461
v -0.148135 -0.576632 -0.010050
v -0.059557 -0.564661 -0.042713
v -0.042267 -0.566795 -0.031757
v -0.023000 -0.574323 0.003919
v -0.024717 -0.579583 0.025034
v -0.097066 -0.621232 0.077213
v -0.100720 -0.595161 0.080049
v -0.121683 -0.620317 0.063165
v -0.126322 -0.594666 0.066725
v -0.146052 -0.602174 -0.010008
v -0.149746 -0.609722 0.013464
v -0.133165 -0.596140 -0.027710
v -0.119336 -0.592209 -0.041121
v -0.101432 -0.590572 -0.046176
v -0.082738 -0.590180 -0.046641
v -0.063326 -0.590502 -0.045146
v -0.045443 -0.592480 -0.036987
v -0.023760 -0.600710 -0.004769
v -0.025727 -0.606364 0.015074
v -0.093682 -0.668897 0.062365
v -0.094560 -0.646188 0.072594
v -0.118850 -0.668232 0.053825
v -0.118919 -0.644579 0.058127
v -0.071576 -0.691343 0.045729
v -0.093890 -0.690709 0.051872
v -0.092426 -0.670432 -0.054184
v -0.109370 -0.670058 -0.054473
v -0.125108 -0.671550 -0.047691
v -0.147743 -0.679248 -0.015440
v -0.144340 -0.685785 0.008611
v -0.115763 -0.690036 0.047040
v -0.131012 -0.690891 0.030905
v -0.036586 -0.680915 -0.021384
v -0.036321 -0.685258 -0.004482
v -0.076098 -0.673136 -0.048171
v -0.059701 -0.675380 -0.043896
v -0.139418 -0.674300 -0.035260
v 0.000271 -0.367596 0.022576
v -0.002340 -0.375830 0.011809
v -0.003955 -0.356282 -0.005707
v -0.011396 -0.362385 -0.015456
v -0.034505 -0.500830 0.074346
v -0.034507 -0.470513 0.083450
v -0.034725 -0.558065 0.056123
v -0.035298 -0.530656 0.066296
v -0.034980 -0.585298 0.046371
v -0.036302 -0.612125 0.035789
v -0.036652 -0.639223 0.025693
v -0.039367 -0.664949 0.016704
v -0.045953 -0.690520 0.012051
v -0.041606 -0.371778 0.111086
v -0.045423 -0.352105 0.113446
v -0.070501 -0.364965 0.122555
v -0.073557 -0.340186 0.122961
v -0.002857 -0.341476 0.054147
v -0.003135 -0.349951 0.054635
v -0.000284 -0.344402 0.042066
v -0.000006 -0.350455 0.040797
v -0.139681 -0.616415 0.039717
v -0.119359 -0.566700 -0.041557
v -0.099931 -0.564728 -0.046630
v -0.079527 -0.564084 -0.046705
v -0.049248 -0.616999 0.057628
v -0.050847 -0.590268 0.065635
v -0.069582 -0.619391 0.073516
v -0.072610 -0.593485 0.078707
v -0.081666 -0.540542 0.094423
v -0.077089 -0.567449 0.086027
v -0.055578 -0.537756 0.084797
v -0.052620 -0.563878 0.075077
v -0.076772 -0.242920 0.129318
v -0.053332 -0.246628 0.138163
v -0.043526 -0.271960 0.131956
v -0.003874 -0.320596 0.096844
v 0.000551 -0.355769 0.038121
v -0.003831 -0.392045 0.065832
v -0.005151 -0.377900 0.072178
v -0.016780 -0.393677 0.087768
v -0.019139 -0.376458 0.093423
v -0.195263 -0.340864 0.022142
v -0.185082 -0.345196 0.059902
v -0.090641 -0.371299 -0.065631
v -0.031112 -0.241608 -0.108626
v -0.061628 -0.243913 -0.109269
v -0.186926 -0.335022 -0.022172
v -0.160101 -0.350113 -0.051614
v -0.038259 -0.393288 0.106600
v -0.047264 -0.313356 0.111873
v -0.040775 -0.298845 0.114696
v -0.194021 -0.305387 0.028664
v -0.183199 -0.308667 0.062650
v -0.019916 -0.287363 0.131011
v -0.008459 -0.286511 0.133975
v 0.000321 -0.387043 0.040147
v -0.001141 -0.403263 0.030250
v -0.017966 -0.348573 -0.039497
v -0.004568 -0.343951 -0.027674
v -0.061022 -0.449156 0.108909
v -0.064407 -0.419648 0.115906
v -0.057049 -0.509402 0.093163
v -0.058946 -0.479583 0.100896
v -0.059032 -0.693060 0.027585
v -0.180754 -0.269993 -0.020289
v -0.190074 -0.271950 0.007753
v -0.105144 -0.233667 0.119703
v -0.024014 -0.347342 0.096418
v -0.007470 -0.356654 0.073428
v -0.004199 -0.426850 0.020286
v -0.189451 -0.272887 0.035013
v -0.010447 -0.455887 0.011806
v -0.017596 -0.486437 0.004650
v -0.094555 -0.485059 -0.050855
v -0.092399 -0.455702 -0.050994
v -0.067825 -0.483423 -0.047370
v -0.062509 -0.452117 -0.047426
v -0.120963 -0.487543 -0.044906
v -0.120824 -0.459310 -0.044936
v -0.106152 -0.568697 0.085117
v 0.000462 -0.375495 0.048631
v -0.163998 -0.348667 0.092161
v -0.162383 -0.317892 0.095417
v -0.104072 -0.302868 0.120725
v -0.074611 -0.316377 0.121386
v -0.030590 -0.290399 0.123783
v -0.001499 -0.358401 0.055075
v -0.067610 -0.391326 0.120584
v -0.102698 -0.359164 0.126269
v -0.135392 -0.355202 0.116759
v -0.157634 -0.257416 0.091140
v -0.130577 -0.243521 0.105350
v -0.132084 -0.266880 0.107612
v -0.001068 -0.345403 -0.012567
v -0.048171 -0.332374 0.113306
v -0.022570 -0.516060 -0.001753
v -0.026594 -0.543705 -0.008528
v -0.029357 -0.570028 -0.015767
v -0.031550 -0.596008 -0.022724
v -0.033637 -0.622281 -0.029595
v -0.038425 -0.648859 -0.035243
v -0.045772 -0.677030 -0.035449
v -0.150315 -0.195233 -0.056784
v -0.167002 -0.192578 -0.034621
v -0.131368 -0.222948 0.106808
v -0.150781 -0.333612 -0.062881
v -0.170785 -0.318820 -0.045190
v -0.157123 -0.309956 -0.060263
v -0.142086 -0.321250 -0.072693
v -0.167690 -0.245090 -0.037513
v -0.167475 -0.269797 -0.043520
v -0.167948 -0.218522 -0.035216
v -0.121064 -0.328172 -0.084816
v -0.091630 -0.312443 -0.099556
v -0.094571 -0.330331 -0.093885
v -0.152161 -0.220677 -0.057336
v -0.151878 -0.246052 -0.059235
v -0.148082 -0.305370 -0.068086
v -0.150192 -0.291527 -0.066066
v -0.164812 -0.292038 -0.051182
v -0.117125 -0.312424 -0.089794
v -0.136235 -0.309575 -0.077791
v -0.134710 -0.293039 -0.079747
v -0.114368 -0.293228 -0.092673
v -0.089298 -0.292059 -0.103660
v -0.088769 -0.245465 -0.103893
v -0.112269 -0.247654 -0.093231
v -0.090106 -0.221963 -0.099603
v -0.113342 -0.222921 -0.089818
v -0.131310 -0.197457 -0.073972
v -0.133469 -0.222649 -0.075996
v -0.089167 -0.199108 -0.094132
v -0.111427 -0.198382 -0.086008
v -0.133513 -0.247997 -0.077944
v -0.088226 -0.269574 -0.105292
v -0.059214 -0.267356 -0.111559
v -0.028793 -0.263799 -0.109795
v -0.111918 -0.541782 0.091796
v -0.000438 -0.353666 0.006935
v -0.181167 -0.279867 0.068219
v -0.192240 -0.300965 -0.004097
v -0.180323 -0.295841 -0.030830
v -0.022070 -0.361869 0.096405
v -0.006619 -0.367193 0.074611
v -0.160877 -0.285894 0.093582
v -0.103849 -0.330025 0.124803
v -0.000272 -0.366627 0.054028
v -0.151614 -0.270694 -0.062775
v -0.134084 -0.272442 -0.079496
v -0.113185 -0.271804 -0.093985
v -0.059798 -0.289599 -0.109526
v -0.027763 -0.284532 -0.107654
v -0.017799 -0.303915 0.116521
v -0.014869 -0.297244 0.125235
v -0.006303 -0.298103 0.124514
v -0.005848 -0.308674 0.112583
v -0.094745 -0.708111 0.039131
v -0.079882 -0.706181 0.036858
v -0.111075 -0.706124 0.039104
v -0.133840 -0.293464 0.111812
v -0.135175 -0.324003 0.115923
vn 0.9887 0.0645 -0.1355
vn 0.9769 -0.0054 -0.2135
vn 0.9881 0.0740 -0.1347
vn 0.9939 0.0313 -0.1055
vn 0.9916 -0.0061 0.1294
vn 0.9907 0.1268 0.0497
vn 0.2236 -0.5657 -0.7937
vn 0.2870 -0.6814 -0.6733
vn -0.1646 -0.7307 -0.6626
vn -0.2274 -0.7835 -0.5783
vn 0.0122 0.2764 -0.9610
vn 0.0356 0.3058 -0.9514
vn 0.9718 -0.1239 0.2008
vn 0.9731 -0.1988 0.1163
vn 0.3854 -0.2892 -0.8763
vn 0.4146 -0.2581 -0.8726
vn 0.2402 -0.3776 0.8943
vn 0.2264 -0.3864 0.8941
vn 0.7398 0.0086 0.6727
vn 0.7297 -0.0219 0.6834
vn -0.2421 -0.8441 -0.4784
vn -0.3344 -0.8777 -0.3432
vn 0.8761 -0.1368 0.4624
vn 0.8628 -0.1037 0.4948
vn 0.2885 -0.0897 0.9533
vn 0.2547 -0.1220 0.9593
vn -0.8069 0.0981 0.5824
vn -0.7155 -0.4085 0.5667
vn -0.0523 -0.3704 -0.9274
vn -0.0677 -0.3286 -0.9420
vn -0.1906 -0.2334 -0.9535
vn -0.2817 -0.1135 -0.9528
vn 0.6941 -0.2197 -0.6855
vn 0.6972 -0.2167 -0.6834
vn 0.9754 -0.1857 0.1184
vn 0.9730 -0.2139 0.0867
vn 0.2536 -0.1381 0.9574
vn 0.1998 -0.1847 0.9623
vn -0.7397 -0.2200 0.6359
vn -0.6836 -0.1521 0.7139
vn 0.1557 -0.0741 0.9850
vn 0.1681 0.0243 0.9855
vn 0.9024 0.0655 0.4259
vn 0.9185 0.1664 0.3587
vn -0.8448 -0.1452 -0.5149
vn -0.9381 -0.0369 -0.3443
vn 0.9071 0.0880 0.4116
vn 0.9030 0.0615 0.4253
vn 0.9529 -0.1872 -0.2387
vn 0.9271 -0.2380 -0.2894
vn 0.9365 -0.2013 -0.2872
vn 0.9051 -0.2517 -0.3428
vn 0.1591 -0.2336 0.9592
vn 0.1122 -0.2711 0.9560
vn -0.9550 -0.2052 0.2144
vn -0.9464 -0.1808 0.2677
vn -0.9919 -0.0915 0.0883
vn -0.9862 -0.0644 0.1527
vn 0.6667 -0.1730 0.7250
vn 0.6909 -0.1416 0.7089
vn 0.8743 -0.2323 0.4262
vn 0.8760 -0.2291 0.4243
vn 0.3831 -0.2118 -0.8991
vn 0.4018 -0.1944 -0.8949
vn -0.8760 -0.1465 0.4595
vn -0.9118 -0.2140 0.3505
vn -0.7871 -0.1081 -0.6073
vn -0.7650 -0.1267 -0.6314
vn 0.7600 -0.0743 -0.6456
vn 0.7831 -0.1257 -0.6090
vn 0.9701 -0.2096 0.1223
vn 0.9634 -0.2302 0.1371
vn 0.8728 -0.1980 0.4460
vn 0.8348 -0.2621 0.4841
vn 0.9670 -0.1703 0.1896
vn 0.9576 -0.1989 0.2084
vn 0.9728 -0.1572 -0.1703
vn 0.9729 -0.1418 -0.1824
vn 0.8056 -0.1044 -0.5832
vn 0.8110 -0.1181 -0.5729
vn 0.5939 -0.0924 -0.7992
vn 0.5595 -0.0463 -0.8276
vn -0.0632 -0.0612 -0.9961
vn -0.1111 -0.0232 -0.9935
vn -0.7432 0.0078 -0.6690
vn -0.6547 -0.0628 -0.7533
vn -0.2697 0.0450 -0.9619
vn -0.1447 -0.0134 -0.9894
vn -0.0399 0.1046 -0.9937
vn -0.0444 0.1068 -0.9933
vn 0.7962 0.1205 -0.5929
vn 0.7728 0.1488 -0.6170
vn 0.8136 0.1200 -0.5689
vn 0.8603 0.0361 -0.5085
vn 0.9982 0.0117 -0.0594
vn 0.9916 -0.1213 0.0448
vn 0.8432 -0.1622 0.5126
vn 0.8542 -0.1401 0.5007
vn -0.9929 -0.1162 0.0240
vn -0.9844 -0.1563 -0.0814
vn -0.8170 -0.2817 0.5032
vn -0.7807 -0.2305 0.5808
vn 0.9551 -0.1903 0.2272
vn 0.9613 -0.1715 0.2156
vn 0.7983 -0.1233 -0.5895
vn 0.8053 -0.1415 -0.5758
vn -0.6624 0.0834 -0.7445
vn -0.5398 -0.0052 -0.8418
vn -0.9941 -0.0405 0.1003
vn -0.9958 -0.0497 0.0764
vn 0.5064 -0.1509 0.8490
vn 0.4782 -0.1800 0.8596
vn 0.9959 -0.0477 -0.0769
vn 0.9921 0.0142 -0.1250
vn 0.8031 0.0181 -0.5956
vn 0.8136 -0.0018 -0.5815
vn 0.3022 0.0863 -0.9493
vn 0.3332 0.0628 -0.9408
vn -0.0392 0.0716 -0.9967
vn 0.0074 0.0433 -0.9990
vn -0.4204 0.1224 -0.8990
vn -0.2692 0.0381 -0.9623
vn -0.9982 -0.0395 0.0455
vn -0.9952 -0.0236 0.0948
vn 0.3403 -0.3838 0.8584
vn 0.5315 -0.1613 0.8316
vn -0.2282 -0.4256 0.8757
vn -0.2304 -0.4277 0.8741
vn 0.0000 0.0937 -0.9956
vn -0.0447 0.1148 -0.9924
vn 0.4056 0.1008 -0.9085
vn 0.3704 0.1223 -0.9208
vn 0.9747 -0.1137 0.1926
vn 0.9959 0.0281 0.0863
vn 0.8372 -0.0478 0.5448
vn 0.6671 -0.2758 0.6921
vn -0.8251 -0.3760 -0.4217
vn -0.9772 -0.1292 -0.1683
vn -0.7780 -0.1651 0.6061
vn -0.8481 -0.2485 0.4679
vn -0.8755 -0.1279 0.4660
vn -0.8973 -0.1526 0.4142
vn -0.8966 -0.1495 0.4168
vn -0.8974 -0.1505 0.4148
vn -0.8889 -0.1514 0.4324
vn -0.8976 -0.1609 0.4105
vn -0.8879 -0.1916 0.4182
vn -0.8739 -0.2173 0.4349
vn -0.3105 0.0444 0.9495
vn -0.3461 -0.0326 0.9376
vn -0.9365 0.2582 0.2374
vn -0.9547 0.2042 0.2166
vn 0.7794 -0.2734 0.5638
vn 0.8009 -0.2404 0.5484
vn 0.9872 -0.0835 -0.1356
vn 0.9867 -0.0660 -0.1488
vn 0.6975 -0.0800 -0.7121
vn 0.6479 -0.0141 -0.7616
vn -0.0128 0.0006 -0.9999
vn 0.0060 -0.0123 -0.9999
vn -0.9951 -0.0685 0.0714
vn -0.9945 -0.0647 0.0826
vn -0.6156 -0.1971 0.7630
vn -0.5131 -0.1097 0.8513
vn 0.8743 -0.0473 0.4831
vn 0.8438 -0.1110 0.5250
vn 0.8634 0.1963 -0.4647
vn 0.9246 0.0763 -0.3733
vn -0.1368 -0.0855 -0.9869
vn -0.2533 -0.0366 -0.9667
vn -0.9605 -0.2569 -0.1070
vn -0.9654 -0.2042 -0.1623
vn -0.8649 -0.2970 0.4047
vn -0.8846 -0.2681 0.3817
vn -0.3955 -0.2525 0.8831
vn -0.3375 -0.2105 0.9175
vn 0.3834 -0.4052 0.8300
vn 0.4143 -0.3816 0.8263
vn 0.1561 -0.8576 0.4901
vn -0.0758 -0.8812 0.4667
vn -0.5392 -0.8140 0.2160
vn -0.7950 -0.5191 0.3140
vn -0.7974 -0.0602 0.6005
vn -0.8297 -0.1501 0.5377
vn 0.9707 -0.1339 0.1995
vn 0.9645 -0.0924 0.2474
vn 0.2566 -0.3320 -0.9077
vn 0.0120 -0.5913 -0.8064
vn 0.0113 0.2134 -0.9769
vn -0.0024 0.1971 -0.9804
vn 0.7253 -0.2256 -0.6504
vn 0.6853 -0.2728 -0.6752
vn 0.7237 -0.2389 -0.6475
vn 0.7736 -0.1492 -0.6159
vn -0.5720 -0.0826 0.8161
vn -0.6061 -0.1478 0.7815
vn -0.3708 -0.3568 0.8574
vn -0.3759 -0.3402 0.8620
vn -0.4152 0.0369 -0.9090
vn -0.5458 0.1180 -0.8296
vn -0.5162 -0.1720 -0.8390
vn -0.6692 -0.0517 -0.7413
vn -0.7986 -0.6008 0.0357
vn 0.9513 0.0139 0.3081
vn 0.9665 -0.0289 0.2552
vn 0.9367 -0.0568 0.3454
vn 0.8445 -0.2712 0.4617
vn 0.1810 -0.4772 0.8600
vn 0.2147 -0.5000 0.8390
vn -0.9914 -0.0509 -0.1204
vn -0.9972 -0.0175 -0.0731
vn -0.8318 -0.1270 0.5403
vn -0.8707 -0.2082 0.4455
vn -0.6163 -0.2637 -0.7421
vn -0.9556 -0.0455 -0.2911
vn -0.3883 -0.7878 -0.4781
vn -0.5388 -0.7449 -0.3936
vn -0.4549 -0.1313 0.8808
vn -0.5261 -0.2019 0.8261
vn -0.5978 -0.2229 0.7701
vn -0.6506 -0.1345 0.7474
vn -0.7442 -0.1986 0.6377
vn -0.6913 -0.1547 0.7058
vn -0.7836 -0.2146 0.5830
vn -0.7442 -0.1789 0.6436
vn -0.7844 -0.1328 0.6058
vn -0.8575 -0.2109 0.4692
vn -0.8041 -0.2162 0.5538
vn -0.8500 -0.2731 0.4504
vn -0.7925 -0.2921 0.5353
vn -0.7674 -0.2612 0.5856
vn -0.7651 -0.2775 0.5810
vn -0.7543 -0.2902 0.5889
vn 0.9805 0.1214 0.1547
vn 0.9795 0.0593 0.1927
vn 0.9645 0.1607 -0.2095
vn 0.9593 0.1269 -0.2521
vn 0.3405 -0.4014 0.8503
vn 0.4183 -0.2518 0.8727
vn -0.6105 -0.1035 0.7852
vn -0.6813 -0.2003 0.7041
vn -0.7953 0.2372 0.5579
vn -0.8136 0.1275 0.5673
vn -0.9800 -0.0931 -0.1761
vn -0.9902 -0.0628 -0.1246
vn 0.9931 0.1078 0.0460
vn 0.9948 0.0973 0.0308
vn -0.9125 -0.1805 -0.3671
vn -0.9543 -0.1304 -0.2690
vn -0.1393 -0.0160 -0.9901
vn -0.1423 -0.0133 -0.9897
vn 0.1950 0.0074 -0.9808
vn 0.2128 -0.0120 -0.9770
vn 0.9486 -0.1400 -0.2837
vn 0.9508 -0.1937 -0.2418
vn -0.3379 -0.0566 -0.9395
vn -0.4128 -0.0022 -0.9108
vn 0.0649 -0.1835 0.9809
vn -0.0294 -0.2563 0.9662
vn -0.7660 -0.3192 0.5579
vn -0.6173 -0.1481 0.7727
vn -0.1756 0.0876 -0.9806
vn -0.0070 0.0089 -0.9999
vn 0.8443 -0.1872 0.5021
vn 0.7997 -0.2585 0.5419
vn 0.9742 -0.1622 -0.1568
vn 0.9747 -0.1475 -0.1679
vn 0.2351 -0.0608 -0.9701
vn 0.2590 -0.0824 -0.9623
vn -0.0159 -0.0772 -0.9969
vn -0.0624 -0.0411 -0.9972
vn -0.1966 -0.0592 -0.9787
vn -0.3412 0.0401 -0.9392
vn -0.0627 0.0726 -0.9954
vn -0.0082 0.0416 -0.9991
vn -0.3590 0.0613 -0.9313
vn -0.1637 -0.0223 -0.9863
vn -0.9661 -0.0249 0.2570
vn -0.9778 -0.1277 0.1660
vn -0.6163 -0.7866 -0.0368
vn -0.5262 -0.8317 -0.1773
vn 0.8429 -0.0312 0.5372
vn 0.8325 -0.0138 0.5538
vn -0.0112 0.0599 0.9981
vn 0.0149 0.1614 0.9868
vn -0.0746 -0.1722 0.9822
vn -0.0652 -0.2184 0.9737
vn 0.9328 -0.1766 0.3141
vn 0.9634 -0.0781 0.2563
vn 0.8007 -0.0683 -0.5952
vn 0.8078 -0.0842 -0.5834
vn -0.0621 -0.0062 -0.9981
vn -0.1996 0.0798 -0.9766
vn -0.8962 -0.1882 0.4018
vn -0.8949 -0.1867 0.4054
vn -0.4792 -0.0382 -0.8769
vn -0.4422 -0.0680 -0.8943
vn 0.3539 -0.5286 0.7716
vn 0.3172 -0.4866 0.8140
vn -0.9720 0.1491 0.1816
vn -0.9372 0.2553 0.2376
vn -0.3423 -0.0475 0.9384
vn -0.3968 -0.1309 0.9085
vn -0.1301 -0.0767 0.9885
vn -0.0943 -0.0362 0.9949
vn 0.6787 -0.0501 0.7327
vn 0.6757 -0.0549 0.7351
vn 0.9614 -0.1371 -0.2385
vn 0.9782 -0.0877 -0.1881
vn -0.0326 -0.5817 -0.8127
vn -0.3336 -0.8073 -0.4869
vn 0.5020 0.1125 0.8575
vn 0.4916 0.0833 0.8668
vn -0.8620 -0.4509 -0.2317
vn -0.5937 -0.7925 0.1394
vn -0.6153 0.1404 0.7757
vn -0.6191 -0.0069 0.7853
vn -0.8362 -0.0331 -0.5474
vn -0.8894 0.0184 -0.4567
vn -0.9504 0.0029 -0.3109
vn -0.9755 0.0436 -0.2155
vn -0.7927 0.1139 -0.5989
vn -0.7215 0.0607 -0.6898
vn -0.8770 0.0500 -0.4779
vn -0.9269 0.0975 -0.3624
vn -0.5273 -0.0114 -0.8496
vn -0.6366 0.0409 -0.7701
vn -0.7808 -0.1643 -0.6028
vn -0.8036 -0.2135 -0.5555
vn -0.9411 -0.0169 -0.3378
vn -0.9665 0.0358 -0.2540
vn -0.7897 -0.5311 -0.3070
vn -0.6060 -0.6122 -0.5079
vn -0.5022 -0.7421 -0.4440
vn -0.4364 -0.7040 -0.5603
vn -0.1837 -0.1938 -0.9637
vn -0.3508 -0.3351 -0.8744
vn -0.4026 -0.0880 0.9111
vn -0.4545 -0.1492 0.8782
vn -0.5256 -0.8025 -0.2823
vn -0.4990 -0.8011 -0.3305
vn 0.7718 -0.1377 -0.6208
vn 0.7254 -0.1120 -0.6791
vn 0.7039 -0.1219 -0.6997
vn 0.7321 -0.1318 -0.6683
vn 0.8991 0.1697 -0.4036
vn 0.8728 0.1048 -0.4767
vn 0.9327 0.0243 -0.3599
vn 0.9145 -0.0213 -0.4041
vn 0.5440 -0.2904 -0.7872
vn 0.5462 -0.2925 -0.7849
vn 0.1666 -0.3119 -0.9354
vn 0.1344 -0.2471 -0.9596
vn 0.9319 0.0420 -0.3603
vn 0.9350 0.0537 -0.3505
vn 0.8144 0.0566 -0.5775
vn 0.8199 0.0692 -0.5683
vn 0.8281 0.0096 -0.5606
vn 0.8243 0.0028 -0.5661
vn 0.6566 0.0168 -0.7540
vn 0.7243 0.0600 -0.6869
vn 0.3420 -0.2002 -0.9181
vn 0.3205 -0.1722 -0.9315
vn 0.6512 0.0032 -0.7589
vn 0.6522 0.0026 -0.7581
vn -0.1050 -0.5221 -0.8464
vn -0.1028 -0.5304 -0.8415
vn -0.3198 -0.4751 -0.8198
vn -0.4199 -0.5881 -0.6912
vn 0.6409 0.0215 -0.7673
vn 0.6448 0.0288 -0.7638
vn 0.4021 -0.1423 -0.9045
vn 0.3445 -0.0666 -0.9364
vn 0.3818 0.1272 -0.9154
vn 0.4100 0.1557 -0.8987
vn 0.6884 0.1277 -0.7140
vn 0.6544 0.0715 -0.7527
vn 0.3208 0.1856 -0.9288
vn 0.3752 0.2493 -0.8928
vn 0.6978 0.0267 -0.7158
vn 0.7170 0.0544 -0.6949
vn -0.0702 -0.7589 -0.6474
vn 0.0154 -0.6741 -0.7385
vn 0.0887 -0.5109 -0.8550
vn 0.0650 -0.4589 -0.8861
vn 0.2095 0.0675 -0.9755
vn 0.2073 0.0652 -0.9761
vn -0.0058 0.0905 -0.9959
vn -0.0386 0.0530 -0.9978
vn -0.1173 -0.0102 -0.9930
vn -0.0703 0.0563 -0.9959
vn 0.2097 0.1974 -0.9576
vn 0.1900 0.1764 -0.9658
vn 0.1867 0.3019 -0.9349
vn 0.1473 0.2561 -0.9554
vn 0.1958 -0.2178 0.9562
vn 0.1574 -0.2494 0.9555
vn -0.3385 -0.2455 0.9084
vn -0.2901 -0.2100 0.9337
vn -0.9764 -0.1710 0.1317
vn -0.9654 -0.1222 0.2303
vn -0.9168 -0.1644 0.3640
vn -0.9413 -0.2163 0.2591
vn 0.8754 -0.2463 0.4159
vn 0.8704 -0.2552 0.4211
vn 0.5637 -0.2969 0.7707
vn 0.6235 -0.2334 0.7462
vn -0.8514 -0.1128 -0.5123
vn -0.7771 -0.1762 -0.6042
vn -0.7355 -0.0970 -0.6705
vn -0.7711 -0.0668 -0.6332
vn 0.7116 -0.1383 -0.6889
vn 0.7366 -0.1886 -0.6495
vn 0.8091 -0.0870 -0.5811
vn 0.7958 -0.0557 -0.6029
vn 0.9714 -0.2215 0.0854
vn 0.9604 -0.2553 0.1120
vn 0.9584 -0.2246 0.1760
vn 0.9718 -0.1833 0.1482
vn -0.7405 -0.2044 0.6402
vn -0.7747 -0.2457 0.5826
vn -0.8516 -0.1814 0.4918
vn -0.8755 -0.1305 0.4652
vn -0.5278 -0.2602 0.8085
vn -0.5916 -0.1600 0.7902
vn -0.6910 -0.1515 0.7068
vn -0.6579 -0.2077 0.7239
vn -0.8775 -0.1204 -0.4643
vn -0.9295 -0.0647 -0.3631
vn -0.9877 -0.1435 0.0622
vn -0.9814 -0.1880 -0.0382
vn -0.1501 -0.0439 -0.9877
vn -0.1438 -0.0502 -0.9883
vn -0.1110 -0.0214 -0.9936
vn -0.1411 0.0050 -0.9900
vn 0.1553 -0.0222 -0.9876
vn 0.1863 -0.0586 -0.9808
vn 0.5598 -0.0436 -0.8275
vn 0.5260 0.0006 -0.8505
vn 0.9234 -0.1850 -0.3364
vn 0.9264 -0.2328 -0.2961
vn 0.9687 -0.1632 -0.1871
vn 0.9677 -0.1115 -0.2260
vn -0.5200 -0.0850 -0.8499
vn -0.4790 -0.1160 -0.8701
vn -0.4117 -0.0363 -0.9106
vn -0.4424 -0.0118 -0.8968
vn -0.2648 0.0231 0.9640
vn -0.2639 0.0372 0.9638
vn 0.9381 -0.0057 0.3464
vn 0.9546 0.1378 0.2642
vn 0.9258 0.1027 -0.3637
vn 0.9536 0.1712 -0.2476
vn -0.7904 0.1608 0.5911
vn -0.7909 0.1584 0.5911
vn 0.9928 0.0988 -0.0678
vn 0.9861 0.1626 0.0342
vn 0.7237 0.0935 0.6838
vn 0.7553 0.1793 0.6303
vn -0.0877 0.0918 0.9919
vn -0.0590 0.1517 0.9867
vn -0.9750 0.1308 0.1795
vn -0.5863 0.1242 0.8005
vn -0.5931 0.0831 0.8009
vn 0.8363 0.1075 -0.5377
vn 0.8680 0.1515 -0.4729
vn 0.7659 0.0374 -0.6419
vn 0.8176 0.1275 -0.5615
vn 0.6963 0.0166 -0.7176
vn 0.7175 0.0481 -0.6949
vn 0.4083 0.0560 -0.9111
vn 0.4196 0.0417 -0.9068
vn 0.2088 -0.0609 -0.9761
vn 0.2013 -0.0503 -0.9782
vn -0.0315 -0.0549 -0.9980
vn -0.0449 -0.0334 -0.9984
vn -0.2261 -0.1902 -0.9554
vn -0.1166 -0.0301 -0.9927
vn 0.2194 -0.6023 0.7675
vn 0.2483 -0.7647 0.5946
vn -0.0125 -0.6226 0.7824
vn 0.1699 -0.5378 0.8258
vn -0.0028 -0.6231 0.7822
vn -0.0332 -0.6377 0.7695
vn 0.0324 -0.8034 0.5946
vn 0.0922 -0.7542 0.6502
vn -0.2087 -0.4458 -0.8704
vn -0.7572 -0.6197 -0.2065
vn -0.0150 -0.7660 0.6426
vn 0.0025 -0.7588 0.6513
vn 0.4144 -0.8717 0.2614
vn -0.2077 -0.5571 0.8041
vn -0.1704 -0.5816 0.7954
vn 0.0540 -0.5816 0.8117
vn 0.2000 -0.4642 0.8628
vn -0.1739 -0.1270 0.9765
vn -0.1296 -0.0853 0.9879
vn -0.2248 -0.1798 0.9577
vn -0.1741 -0.1363 0.9753
vn 0.3342 0.0956 0.9377
vn 0.3189 0.0438 0.9468
vn -0.2637 -0.2035 0.9429
vn -0.2908 -0.2238 0.9303
vn -0.2335 -0.3688 0.8997
vn -0.2338 -0.3691 0.8995
vn -0.7841 -0.2844 0.5516
vn -0.8061 -0.3252 0.4945
vn -0.1516 -0.1865 0.9707
vn -0.0196 -0.0777 0.9968
vn 0.0650 -0.2809 0.9575
vn 0.0545 -0.2888 0.9558
vn 0.4924 -0.1450 0.8582
vn 0.4533 -0.2471 0.8564
vn -0.5135 -0.2632 0.8167
vn -0.3924 -0.1748 0.9030
vn -0.1508 -0.1625 0.9751
vn -0.2326 -0.2334 0.9442
vn 0.2476 0.2210 0.9433
vn 0.2249 0.1714 0.9592
vn 0.3118 -0.0435 0.9492
vn 0.2879 -0.0690 0.9552
vn -0.2255 -0.1956 0.9544
vn -0.2654 -0.2281 0.9368
vn 0.1151 -0.2416 0.9635
vn 0.0650 -0.2812 0.9575
vn 0.2758 0.0116 0.9611
vn 0.3001 0.0422 0.9530
vn 0.5463 -0.1346 0.8267
vn 0.5758 -0.0577 0.8155
vn 0.6919 -0.1052 0.7143
vn 0.6825 -0.1189 0.7212
vn 0.8711 -0.1839 0.4555
vn 0.8865 -0.1544 0.4362
vn 0.6178 -0.2711 0.7381
vn 0.6538 -0.2301 0.7208
vn 0.5715 -0.2467 0.7826
vn 0.4810 -0.3339 0.8107
vn 0.7865 -0.2118 0.5802
vn 0.8080 -0.1773 0.5619
vn 0.8370 -0.1102 0.5359
vn 0.8077 -0.1647 0.5661
vn 0.3496 -0.2889 0.8912
vn 0.2029 -0.4280 0.8807
vn 0.5288 -0.2171 0.8205
vn 0.4982 -0.2511 0.8299
vn 0.4941 -0.2288 0.8387
vn 0.4715 -0.2508 0.8454
vn 0.5986 0.1335 0.7899
vn 0.5624 0.0734 0.8236
vn 0.8621 -0.1130 0.4939
vn 0.8331 -0.0502 0.5508
vn 0.7108 0.0991 0.6964
vn 0.7180 0.1222 0.6853
vn 0.6509 -0.2493 0.7171
vn 0.6577 -0.2413 0.7136
vn 0.8764 -0.2263 0.4250
vn 0.8666 -0.2438 0.4354
vn 0.5190 0.2315 0.8228
vn 0.4866 0.1598 0.8589
vn 0.6059 -0.4703 0.6417
vn -0.6357 -0.6042 0.4804
vn -0.2993 0.0956 0.9494
vn -0.3123 0.0488 0.9487
vn 0.9681 0.0440 0.2467
vn 0.9440 0.0987 0.3149
vn 0.7904 -0.0442 0.6110
vn 0.8298 0.0668 0.5541
vn 0.7540 0.1537 -0.6386
vn 0.7224 0.1120 -0.6824
vn 0.6852 0.1201 -0.7184
vn 0.6385 0.0470 -0.7682
vn 0.4140 -0.0444 -0.9092
vn 0.4090 -0.0380 -0.9118
vn -0.9371 -0.2715 -0.2192
vn 0.8374 0.0307 -0.5457
vn 0.9263 0.0835 -0.3674
vn -0.8002 -0.0256 0.5992
vn -0.7847 0.0384 0.6187
vn 0.9831 -0.0249 -0.1813
vn 0.9962 0.0448 -0.0748
vn -0.1051 0.0173 0.9943
vn -0.0759 0.0604 0.9953
vn -0.5792 -0.0462 0.8139
vn -0.5587 0.0221 0.8290
vn -0.8903 -0.3906 -0.2342
vn -0.9106 -0.3658 -0.1924
vn 0.7787 0.0075 -0.6273
vn 0.8342 0.0350 -0.5503
vn 0.1838 -0.1786 -0.9666
vn 0.1938 -0.1944 -0.9616
vn -0.0255 -0.2137 -0.9766
vn -0.0430 -0.1788 -0.9829
vn -0.3002 -0.1652 -0.9395
vn -0.2233 -0.3085 -0.9246
vn 0.2355 0.1417 0.9615
vn 0.2435 0.1540 0.9576
vn 0.6690 0.0049 0.7432
vn 0.6302 -0.0630 0.7739
vn 0.4542 -0.3334 -0.8262
vn 0.5541 -0.4489 -0.7010
vn 0.0750 -0.2764 -0.9581
vn 0.0929 -0.2601 -0.9611
vn 0.0985 -0.1994 -0.9750
vn 0.1086 -0.2144 -0.9707
vn 0.2221 -0.0335 -0.9745
vn 0.2366 -0.0474 -0.9705
vn 0.3373 0.1537 -0.9288
vn 0.3707 0.1336 -0.9191
vn 0.7187 0.0566 -0.6930
vn 0.7596 0.0014 -0.6504
vn 0.7046 0.2038 -0.6797
vn 0.7956 0.1062 -0.5965
vn -0.9443 0.0706 0.3214
vn -0.9144 0.2130 0.3442
vn 0.2680 0.0036 -0.9634
vn 0.2939 -0.0172 -0.9557
vn -0.1337 -0.9083 0.3963
vn -0.4167 -0.7280 0.5444
vn 0.4527 -0.2690 -0.8501
vn 0.4065 -0.3350 -0.8500
vn -0.9814 -0.0758 0.1764
vn -0.9859 -0.1261 0.1101
vn -0.9873 -0.1110 0.1141
vn -0.9882 -0.1397 0.0631
vn -0.9914 -0.1282 -0.0280
vn -0.9763 -0.1709 -0.1327
vn 0.5185 -0.0612 -0.8529
vn 0.4838 -0.0152 -0.8750
vn 0.6254 -0.1283 -0.7697
vn 0.5952 -0.0855 -0.7990
vn -0.9757 -0.1746 -0.1324
vn -0.9993 -0.0299 0.0210
vn -0.9132 0.2233 0.3410
vn -0.9053 0.2454 0.3466
vn -0.9880 -0.0202 -0.1533
vn -0.9715 -0.0533 -0.2308
vn -0.7907 0.0348 -0.6112
vn -0.8404 0.0789 -0.5362
vn -0.9522 0.0666 -0.2980
vn -0.9253 0.0343 -0.3776
vn -0.6393 0.0684 -0.7659
vn -0.7242 0.1218 -0.6788
vn -0.8683 -0.0346 -0.4949
vn -0.8460 -0.0498 -0.5309
vn -0.5127 -0.1379 -0.8474
vn -0.4764 -0.1524 -0.8659
vn 0.3170 -0.4145 -0.8530
vn 0.3001 -0.3923 -0.8695
vn 0.5137 -0.0998 -0.8522
vn 0.5171 -0.1032 -0.8497
vn 0.5066 0.0054 -0.8622
vn 0.5361 -0.0284 -0.8437
vn 0.5429 0.0696 -0.8369
vn 0.5725 0.1027 -0.8135
vn 0.4938 0.1298 -0.8598
vn 0.5346 0.1822 -0.8252
vn -0.9869 -0.1033 -0.1244
vn -0.9787 -0.1212 -0.1660
vn -0.9438 -0.1841 -0.2744
vn -0.9723 -0.1400 -0.1870
vn 0.4671 -0.1344 -0.8739
vn 0.4057 -0.0547 -0.9124
vn 0.2143 0.0032 -0.9768
vn 0.2248 -0.0076 -0.9744
vn -0.9188 0.1637 0.3592
vn -0.9359 0.1002 0.3378
vn 0.5725 0.0428 -0.8188
vn 0.5863 0.0243 -0.8097
vn 0.5335 0.0453 -0.8446
vn 0.5852 -0.0190 -0.8107
vn -0.9392 0.0525 0.3392
vn -0.9622 -0.1111 0.2487
vn 0.3504 -0.3740 0.8587
vn 0.3362 -0.3835 0.8602
vn 0.3482 -0.4729 0.8094
vn 0.3806 -0.5349 0.7543
vn 0.3368 -0.5597 0.7572
vn 0.3805 -0.6631 0.6446
vn 0.1288 -0.7914 0.5976
vn 0.1283 -0.7918 0.5972
vn -0.2883 -0.3412 -0.8947
vn -0.3053 -0.2869 -0.9080
vn -0.0157 0.1980 -0.9801
vn -0.0707 0.1210 -0.9901
vn -0.0021 -0.7928 0.6095
vn 0.4032 -0.6044 0.6871
vn 0.0037 -0.5037 0.8639
vn -0.0133 -0.5125 0.8586
vn 0.0441 -0.3878 0.9207
vn -0.0013 -0.4146 0.9100
vn 0.0311 0.2758 -0.9607
vn -0.0156 0.2089 -0.9778
vn -0.9737 0.0292 -0.2258
vn -0.9839 0.0935 -0.1523
vn -0.9860 0.0596 -0.1554
vn -0.9867 0.0558 -0.1524
vn -0.9941 0.0433 0.0995
vn -0.9875 0.1560 0.0220
vn -0.2915 -0.6851 -0.6676
vn -0.2121 -0.5265 -0.8233
vn 0.2251 -0.7780 -0.5866
vn 0.1834 -0.7445 -0.6419
vn -0.0172 0.2390 -0.9709
vn -0.0522 0.2795 -0.9587
vn -0.9723 -0.1312 0.1936
vn -0.9740 -0.1680 0.1522
vn -0.4294 -0.2362 -0.8717
vn -0.3930 -0.2760 -0.8772
vn -0.2024 -0.4064 0.8910
vn -0.2726 -0.3691 0.8885
vn -0.7477 0.0072 0.6640
vn -0.7696 0.0832 0.6331
vn 0.3673 -0.8715 -0.3250
vn 0.2352 -0.8189 -0.5236
vn -0.8726 -0.1438 0.4667
vn -0.8588 -0.1087 0.5006
vn -0.2455 -0.1198 0.9620
vn -0.2716 -0.0932 0.9579
vn 0.7446 -0.3666 0.5578
vn 0.8106 -0.0426 0.5841
vn 0.0893 -0.3427 -0.9352
vn 0.1020 -0.3047 -0.9470
vn 0.2783 -0.1282 -0.9519
vn 0.1938 -0.2361 -0.9522
vn -0.6719 -0.2374 -0.7016
vn -0.7038 -0.2056 -0.6800
vn -0.9708 -0.1880 0.1489
vn -0.9696 -0.2112 0.1232
vn -0.2004 -0.1874 0.9616
vn -0.2438 -0.1476 0.9585
vn 0.7173 -0.1774 0.6738
vn 0.7641 -0.2390 0.5992
vn -0.1227 0.0290 0.9920
vn -0.1067 -0.0696 0.9919
vn -0.9261 0.1423 0.3495
vn -0.9215 0.1100 0.3726
vn 0.9039 -0.0176 -0.4274
vn 0.8160 -0.1073 -0.5680
vn -0.9209 0.1132 0.3730
vn -0.9166 0.0807 0.3916
vn -0.9526 -0.1591 -0.2594
vn -0.9259 -0.2125 -0.3123
vn -0.9311 -0.1907 -0.3110
vn -0.9024 -0.2367 -0.3601
vn -0.1568 -0.2185 0.9632
vn -0.1190 -0.2513 0.9606
vn 0.9525 -0.1816 0.2445
vn 0.9618 -0.2194 0.1638
vn 0.9884 -0.0705 0.1348
vn 0.9928 -0.1081 0.0515
vn -0.6689 -0.1516 0.7277
vn -0.6502 -0.1765 0.7390
vn -0.8756 -0.2234 0.4283
vn -0.8673 -0.2384 0.4369
vn -0.4049 -0.2149 -0.8888
vn -0.3756 -0.2413 -0.8948
vn 0.9177 -0.2290 0.3247
vn 0.8904 -0.1688 0.4228
vn 0.7316 -0.1337 -0.6685
vn 0.7540 -0.1167 -0.6464
vn -0.7772 -0.1284 -0.6160
vn -0.7476 -0.0653 -0.6610
vn -0.9657 -0.2142 0.1468
vn -0.9583 -0.2355 0.1620
vn -0.8550 -0.2283 0.4657
vn -0.8771 -0.1885 0.4417
vn -0.9576 -0.1884 0.2178
vn -0.9625 -0.1738 0.2082
vn -0.9728 -0.1334 -0.1896
vn -0.9725 -0.1602 -0.1692
vn -0.8007 -0.1088 -0.5891
vn -0.7967 -0.0991 -0.5962
vn -0.5627 -0.0547 -0.8249
vn -0.5861 -0.0862 -0.8056
vn 0.1062 -0.0205 -0.9941
vn 0.0466 -0.0686 -0.9966
vn 0.6433 -0.0656 -0.7628
vn 0.7190 -0.0086 -0.6950
vn 0.1894 -0.0045 -0.9819
vn 0.3043 0.0507 -0.9512
vn 0.0732 0.1270 -0.9892
vn 0.0271 0.1032 -0.9943
vn -0.7468 0.1577 -0.6460
vn -0.7732 0.1264 -0.6214
vn -0.8643 0.0462 -0.5009
vn -0.8206 0.1253 -0.5575
vn -0.9942 -0.1026 -0.0312
vn -0.9918 0.0235 -0.1255
vn -0.8648 -0.1319 0.4845
vn -0.8576 -0.1472 0.4928
vn 0.9908 -0.1317 0.0320
vn 0.9885 -0.1504 -0.0174
vn 0.7871 -0.2492 0.5642
vn 0.8102 -0.2828 0.5134
vn -0.9620 -0.1507 0.2277
vn -0.9526 -0.1798 0.2454
vn -0.7957 -0.1295 -0.5917
vn -0.7928 -0.1223 -0.5971
vn 0.5326 -0.0274 -0.8459
vn 0.6527 0.0564 -0.7555
vn 0.9956 -0.0693 0.0637
vn 0.9957 -0.0707 0.0602
vn -0.4936 -0.1621 0.8544
vn -0.4552 -0.2026 0.8670
vn -0.9881 0.0067 -0.1534
vn -0.9904 -0.0147 -0.1375
vn -0.8108 0.0152 -0.5851
vn -0.8100 0.0167 -0.5862
vn -0.3016 0.0601 -0.9515
vn -0.2775 0.0784 -0.9575
vn -0.0255 0.0331 -0.9991
vn 0.0269 0.0650 -0.9975
vn 0.3034 0.0380 -0.9521
vn 0.4224 0.1064 -0.9001
vn 0.9973 -0.0480 0.0558
vn 0.9954 -0.0373 0.0880
vn -0.3038 -0.4010 0.8642
vn -0.5120 -0.1552 0.8448
vn 0.2289 -0.4256 0.8755
vn 0.2273 -0.4239 0.8767
vn 0.0733 0.1305 -0.9887
vn 0.0193 0.1041 -0.9944
vn -0.3487 0.1369 -0.9272
vn -0.4019 0.1032 -0.9099
vn -0.9989 0.0464 0.0115
vn -0.9890 -0.0936 0.1145
vn -0.6845 -0.3032 0.6630
vn -0.8369 -0.0958 0.5388
vn 0.9809 -0.0784 -0.1779
vn 0.8389 -0.3232 -0.4380
vn 0.8628 -0.2436 0.4430
vn 0.8081 -0.1694 0.5642
vn 0.8940 -0.1563 0.4200
vn 0.8856 -0.1453 0.4412
vn 0.8939 -0.1585 0.4194
vn 0.9048 -0.1738 0.3887
vn 0.8963 -0.1650 0.4117
vn 0.8927 -0.1608 0.4210
vn 0.8918 -0.1950 0.4082
vn 0.8641 -0.2448 0.4398
vn 0.3600 -0.0419 0.9320
vn 0.3298 0.0252 0.9437
vn 0.9769 -0.0198 0.2128
vn 0.9754 -0.0015 0.2206
vn -0.7896 -0.2348 0.5670
vn -0.8063 -0.2069 0.5541
vn -0.9828 -0.0607 -0.1742
vn -0.9839 -0.0805 -0.1594
vn -0.6830 -0.0757 -0.7265
vn -0.6355 -0.0138 -0.7720
vn -0.0245 -0.0161 -0.9996
vn -0.0036 -0.0020 -1.0000
vn 0.9959 -0.0619 0.0656
vn 0.9950 -0.0559 0.0827
vn 0.6182 -0.1914 0.7624
vn 0.5236 -0.1081 0.8451
vn -0.8580 -0.1068 0.5025
vn -0.8639 -0.0942 0.4949
vn -0.8668 0.2070 -0.4537
vn -0.9261 0.0891 -0.3667
vn 0.2472 -0.0382 -0.9682
vn 0.1823 -0.0652 -0.9811
vn 0.9653 -0.2490 -0.0791
vn 0.9608 -0.2719 -0.0547
vn 0.8632 -0.2967 0.4085
vn 0.8566 -0.3053 0.4159
vn 0.3583 -0.2220 0.9068
vn 0.4259 -0.2728 0.8627
vn -0.3786 -0.3778 0.8449
vn -0.4032 -0.3620 0.8405
vn 0.0125 -0.8979 0.4400
vn -0.1652 -0.8744 0.4562
vn 0.4679 -0.8310 0.3009
vn 0.3161 -0.9197 0.2328
vn 0.8570 -0.1422 0.4953
vn 0.8312 -0.0674 0.5519
vn -0.9730 -0.1242 0.1946
vn -0.9650 -0.0725 0.2519
vn -0.0342 -0.5549 -0.8312
vn -0.2397 -0.3248 -0.9149
vn 0.0072 0.1789 -0.9838
vn -0.0153 0.2038 -0.9789
vn -0.6959 -0.2453 -0.6750
vn -0.7343 -0.1982 -0.6492
vn -0.7694 -0.1625 -0.6177
vn -0.7301 -0.2336 -0.6422
vn 0.6497 -0.1554 0.7442
vn 0.6074 -0.0705 0.7913
vn 0.4124 -0.3012 0.8598
vn 0.4006 -0.3443 0.8491
vn 0.4172 0.0247 -0.9085
vn 0.5414 0.1030 -0.8344
vn 0.6765 -0.0384 -0.7354
vn 0.4939 -0.1817 -0.8503
vn 0.5444 -0.8384 -0.0277
vn -0.9658 -0.0138 0.2588
vn -0.9518 0.0261 0.3056
vn -0.8594 -0.2293 0.4569
vn -0.9361 -0.0355 0.3498
vn -0.1832 -0.4939 0.8500
vn -0.1864 -0.4971 0.8475
vn 0.9943 -0.0263 -0.1038
vn 0.9884 -0.0527 -0.1426
vn 0.8871 -0.2014 0.4154
vn 0.8576 -0.1352 0.4962
vn 0.9401 -0.1127 -0.3216
vn 0.6158 -0.2947 -0.7307
vn 0.5526 -0.7668 -0.3265
vn 0.2704 -0.8268 -0.4933
vn 0.5542 -0.2281 0.8006
vn 0.4800 -0.1499 0.8644
vn 0.6662 -0.1472 0.7311
vn 0.6201 -0.2256 0.7514
vn 0.6966 -0.1796 0.6946
vn 0.7421 -0.2195 0.6333
vn 0.7422 -0.1810 0.6452
vn 0.7802 -0.2173 0.5865
vn 0.8595 -0.2236 0.4596
vn 0.7816 -0.1356 0.6088
vn 0.8453 -0.3167 0.4304
vn 0.7760 -0.2290 0.5877
vn 0.7522 -0.2867 0.5933
vn 0.7641 -0.3011 0.5705
vn 0.7540 -0.2961 0.5864
vn 0.7501 -0.3004 0.5892
vn -0.9899 0.0932 0.1071
vn -0.9897 0.0609 0.1297
vn -0.9432 0.1335 -0.3042
vn -0.9551 0.2057 -0.2134
vn -0.3690 -0.1848 0.9109
vn -0.2759 -0.3539 0.8937
vn 0.7154 -0.2119 0.6658
vn 0.6531 -0.1216 0.7474
vn 0.8487 0.1169 0.5157
vn 0.8319 0.2132 0.5123
vn 0.9869 -0.0657 -0.1473
vn 0.9747 -0.0958 -0.2019
vn -0.9882 0.1506 0.0278
vn -0.9892 0.1452 0.0205
vn 0.9414 -0.1495 -0.3023
vn 0.9005 -0.1930 -0.3897
vn 0.1301 -0.0143 -0.9914
vn 0.1211 -0.0223 -0.9924
vn -0.2198 0.0000 -0.9756
vn -0.2097 0.0108 -0.9777
vn -0.9490 -0.1990 -0.2445
vn -0.9468 -0.1416 -0.2889
vn 0.3941 -0.0021 -0.9191
vn 0.3232 -0.0524 -0.9449
vn 0.0615 -0.2603 0.9636
vn -0.0225 -0.1925 0.9810
vn 0.6184 -0.1859 0.7635
vn 0.7658 -0.3602 0.5327
vn 0.0032 0.0263 -0.9996
vn 0.1345 0.0912 -0.9867
vn -0.8602 -0.1817 0.4765
vn -0.8194 -0.2511 0.5153
vn -0.9756 -0.1445 -0.1653
vn -0.9757 -0.1331 -0.1739
vn -0.2441 -0.0808 -0.9664
vn -0.2335 -0.0713 -0.9697
vn 0.0461 -0.0507 -0.9977
vn -0.0009 -0.0862 -0.9963
vn 0.3256 0.0172 -0.9453
vn 0.1936 -0.0707 -0.9785
vn 0.0034 0.0297 -0.9996
vn 0.0778 0.0731 -0.9943
vn 0.1241 -0.0185 -0.9921
vn 0.3564 0.0825 -0.9307
vn 0.9841 -0.1128 0.1371
vn 0.9730 -0.0127 0.2306
vn 0.5167 -0.8346 -0.1910
vn 0.5922 -0.8027 -0.0711
vn -0.8370 0.0020 0.5472
vn -0.8456 -0.0121 0.5338
vn 0.0128 0.1512 0.9884
vn 0.0262 0.1057 0.9941
vn 0.0930 -0.2300 0.9687
vn 0.1100 -0.1331 0.9850
vn -0.9591 -0.0709 0.2741
vn -0.9354 -0.1496 0.3205
vn -0.8027 -0.0811 -0.5908
vn -0.7959 -0.0659 -0.6019
vn 0.1974 0.0633 -0.9783
vn 0.0766 -0.0119 -0.9970
vn 0.9032 -0.1953 0.3822
vn 0.8952 -0.1846 0.4056
vn 0.4300 -0.0746 -0.8997
vn 0.4567 -0.0538 -0.8880
vn -0.3081 -0.5212 0.7959
vn -0.3427 -0.5711 0.7460
vn 0.9579 0.1964 0.2094
vn 0.9912 0.0404 0.1261
vn 0.4202 -0.1221 0.8992
vn 0.3627 -0.0299 0.9314
vn 0.1096 -0.0276 0.9936
vn 0.1355 -0.0591 0.9890
vn -0.6585 -0.0581 0.7503
vn -0.6627 -0.0509 0.7472
vn -0.9545 -0.1473 -0.2592
vn -0.9775 -0.0809 -0.1946
vn 0.3167 -0.7865 -0.5302
vn 0.0197 -0.5446 -0.8384
vn -0.4991 0.0906 0.8618
vn -0.5077 0.1154 0.8538
vn 0.3272 -0.9393 0.1030
vn 0.6940 -0.6834 -0.2265
vn 0.6263 0.0288 0.7791
vn 0.6201 0.1273 0.7741
vn 0.8785 -0.0108 -0.4776
vn 0.8295 -0.0561 -0.5556
vn 0.9725 0.0199 -0.2320
vn 0.9506 -0.0145 -0.3101
vn 0.7217 0.0513 -0.6903
vn 0.7839 0.0980 -0.6131
vn 0.9220 0.0840 -0.3780
vn 0.8871 0.0496 -0.4590
vn 0.6317 0.0506 -0.7735
vn 0.5303 0.0005 -0.8478
vn 0.7999 -0.1805 -0.5723
vn 0.8116 -0.2077 -0.5460
vn 0.9545 0.0454 -0.2946
vn 0.8988 -0.0464 -0.4359
vn 0.6442 -0.5738 -0.5057
vn 0.8099 -0.5016 -0.3042
vn 0.4393 -0.6912 -0.5738
vn 0.4956 -0.7229 -0.4814
vn 0.3490 -0.3717 -0.8603
vn 0.1732 -0.2185 -0.9603
vn 0.4794 -0.1717 0.8606
vn 0.4224 -0.1010 0.9008
vn 0.4900 -0.8137 -0.3128
vn 0.5181 -0.8151 -0.2592
vn -0.6970 -0.0920 -0.7112
vn -0.7655 -0.1321 -0.6297
vn -0.7031 -0.1108 -0.7024
vn -0.6779 -0.1012 -0.7282
vn -0.8867 0.1670 -0.4311
vn -0.8631 0.1122 -0.4924
vn -0.9112 0.0548 -0.4083
vn -0.9009 0.0287 -0.4331
vn -0.5237 -0.2724 -0.8072
vn -0.5487 -0.2994 -0.7806
vn -0.1542 -0.2906 -0.9443
vn -0.1479 -0.2767 -0.9495
vn -0.9119 0.0426 -0.4082
vn -0.9166 0.0577 -0.3957
vn -0.7957 0.0429 -0.6042
vn -0.8086 0.0713 -0.5840
vn -0.8072 0.0351 -0.5892
vn -0.8113 0.0425 -0.5831
vn -0.6571 0.0098 -0.7537
vn -0.7134 0.0482 -0.6991
vn -0.3319 -0.2078 -0.9201
vn -0.3481 -0.2308 -0.9086
vn -0.6473 -0.0234 -0.7618
vn -0.6372 -0.0171 -0.7705
vn 0.1385 -0.4909 -0.8602
vn 0.1237 -0.5499 -0.8260
vn 0.2967 -0.4581 -0.8379
vn 0.4303 -0.6151 -0.6607
vn -0.6401 -0.0318 -0.7676
vn -0.6617 0.0085 -0.7497
vn -0.3562 -0.0883 -0.9302
vn -0.3921 -0.1382 -0.9095
vn -0.4199 0.1398 -0.8967
vn -0.3896 0.1093 -0.9145
vn -0.6652 0.0644 -0.7439
vn -0.6955 0.1166 -0.7090
vn -0.3858 0.2297 -0.8935
vn -0.3330 0.1700 -0.9275
vn -0.7034 0.0452 -0.7094
vn -0.7097 0.0552 -0.7024
vn 0.0704 -0.7747 -0.6284
vn -0.0133 -0.6921 -0.7217
vn -0.0941 -0.5312 -0.8420
vn -0.0723 -0.4773 -0.8757
vn -0.1969 0.0524 -0.9790
vn -0.2159 0.0729 -0.9737
vn 0.0135 0.0986 -0.9950
vn 0.0510 0.0579 -0.9970
vn 0.0556 0.0583 -0.9967
vn 0.1051 -0.0073 -0.9944
vn -0.1818 0.1666 -0.9691
vn -0.2011 0.1866 -0.9616
vn -0.1824 0.2732 -0.9445
vn -0.1485 0.2360 -0.9603
vn -0.1990 -0.2011 0.9591
vn -0.1548 -0.2399 0.9584
vn 0.3203 -0.2159 0.9224
vn 0.3585 -0.2470 0.9002
vn 0.9806 -0.1564 0.1180
vn 0.9753 -0.1246 0.1822
vn 0.9434 -0.2380 0.2309
vn 0.9234 -0.1853 0.3361
vn -0.8668 -0.2418 0.4361
vn -0.8642 -0.2464 0.4387
vn -0.6269 -0.2092 0.7505
vn -0.5615 -0.2825 0.7778
vn 0.7472 -0.1644 -0.6440
vn 0.8152 -0.1116 -0.5684
vn 0.7390 -0.0656 -0.6705
vn 0.7120 -0.0865 -0.6968
vn -0.7228 -0.1918 -0.6639
vn -0.6941 -0.1359 -0.7069
vn -0.7887 -0.0657 -0.6113
vn -0.7987 -0.0888 -0.5951
vn -0.9640 -0.2376 0.1190
vn -0.9558 -0.2602 0.1367
vn -0.9686 -0.1751 0.1767
vn -0.9575 -0.2082 0.1995
vn 0.8025 -0.2523 0.5407
vn 0.7662 -0.2033 0.6096
vn 0.8666 -0.1835 0.4640
vn 0.8856 -0.1428 0.4420
vn 0.6125 -0.1620 0.7737
vn 0.5549 -0.2551 0.7919
vn 0.6723 -0.2095 0.7100
vn 0.6960 -0.1698 0.6977
vn 0.9197 -0.0710 -0.3860
vn 0.8670 -0.1239 -0.4827
vn 0.9793 -0.1952 -0.0532
vn 0.9864 -0.1637 0.0170
vn 0.1264 -0.0692 -0.9896
vn 0.1532 -0.0435 -0.9872
vn 0.1291 0.0028 -0.9916
vn 0.1061 -0.0173 -0.9942
vn -0.2000 -0.0661 -0.9776
vn -0.1745 -0.0360 -0.9840
vn -0.5302 -0.0057 -0.8478
vn -0.5634 -0.0495 -0.8247
vn -0.9155 -0.1886 -0.3554
vn -0.9189 -0.2513 -0.3040
vn -0.9667 -0.1158 -0.2284
vn -0.9677 -0.1592 -0.1954
vn 0.4572 -0.1093 -0.8826
vn 0.4975 -0.0797 -0.8638
vn 0.4306 -0.0079 -0.9025
vn 0.3927 -0.0370 -0.9189
vn 0.3225 0.0558 0.9449
vn 0.3199 0.0777 0.9443
vn -0.9391 0.0233 0.3428
vn -0.9516 0.1491 0.2687
vn -0.9353 0.1913 -0.2975
vn -0.9141 0.1400 -0.3806
vn 0.8274 0.1102 0.5507
vn 0.8236 0.1285 0.5525
vn -0.9906 0.1340 0.0272
vn -0.9949 0.0913 -0.0418
vn -0.7565 0.1409 0.6387
vn -0.7464 0.1129 0.6558
vn 0.0460 0.1487 0.9878
vn 0.0837 0.0695 0.9941
vn 0.9819 0.1288 0.1387
vn 0.6076 0.0902 0.7891
vn 0.6094 0.0808 0.7888
vn -0.8540 0.1842 -0.4866
vn -0.8003 0.1074 -0.5899
vn -0.7673 0.0831 -0.6359
vn -0.7981 0.1358 -0.5870
vn -0.6856 0.0621 -0.7253
vn -0.7057 0.0933 -0.7024
vn -0.4161 0.0433 -0.9083
vn -0.4155 0.0441 -0.9085
vn -0.2043 -0.0838 -0.9753
vn -0.1897 -0.0621 -0.9799
vn 0.0691 -0.0991 -0.9927
vn 0.0727 -0.0927 -0.9930
vn 0.1049 -0.0970 -0.9897
vn 0.1748 -0.1977 -0.9646
vn -0.2196 -0.7882 0.5749
vn -0.1941 -0.6005 0.7757
vn -0.1682 -0.5601 0.8112
vn 0.0018 -0.6321 0.7749
vn -0.0036 -0.6374 0.7705
vn -0.0122 -0.6336 0.7735
vn -0.0275 -0.7892 0.6135
vn -0.0804 -0.7476 0.6593
vn 0.7574 -0.6162 -0.2159
vn 0.2413 -0.4436 -0.8631
vn -0.0230 -0.7487 0.6625
vn 0.0217 -0.7655 0.6431
vn -0.3874 -0.8824 0.2671
vn 0.1963 -0.5855 0.7865
vn 0.2002 -0.5829 0.7875
vn -0.0727 -0.5869 0.8064
vn -0.2033 -0.4802 0.8533
vn 0.1340 -0.0854 0.9873
vn 0.1873 -0.1394 0.9723
vn 0.1874 -0.1405 0.9722
vn 0.2494 -0.1963 0.9483
vn -0.2929 0.0334 0.9556
vn -0.3182 0.1117 0.9414
vn 0.2904 -0.1934 0.9372
vn 0.3204 -0.2186 0.9217
vn 0.2318 -0.3805 0.8952
vn 0.2426 -0.3906 0.8880
vn 0.7959 -0.3383 0.5021
vn 0.7733 -0.2929 0.5623
vn 0.1429 -0.1784 0.9735
vn 0.0534 -0.1006 0.9935
vn -0.0170 -0.3005 0.9536
vn -0.0733 -0.2550 0.9642
vn -0.4266 -0.1876 0.8848
vn -0.4661 -0.0804 0.8811
vn 0.4234 -0.1770 0.8885
vn 0.5253 -0.2551 0.8118
vn 0.2441 -0.2597 0.9343
vn 0.1424 -0.1663 0.9757
vn -0.2380 0.1552 0.9588
vn -0.2436 0.1670 0.9554
vn -0.2710 -0.0576 0.9609
vn -0.2838 -0.0427 0.9579
vn 0.2491 -0.1885 0.9500
vn 0.2915 -0.2250 0.9297
vn -0.0715 -0.2819 0.9568
vn -0.1198 -0.2412 0.9630
vn -0.2749 0.0375 0.9607
vn -0.2677 0.0277 0.9631
vn -0.5777 -0.0078 0.8162
vn -0.5549 -0.0800 0.8280
vn -0.6657 -0.1176 0.7369
vn -0.6701 -0.1109 0.7339
vn -0.8735 -0.1745 0.4545
vn -0.8682 -0.1842 0.4607
vn -0.6416 -0.2258 0.7330
vn -0.6219 -0.2494 0.7424
vn -0.5717 -0.2052 0.7944
vn -0.4718 -0.3062 0.8268
vn -0.7909 -0.2222 0.5701
vn -0.8289 -0.1575 0.5368
vn -0.8368 -0.1003 0.5382
vn -0.8107 -0.1507 0.5658
vn -0.3118 -0.3223 0.8938
vn -0.2079 -0.4224 0.8822
vn -0.4887 -0.2304 0.8414
vn -0.5097 -0.2058 0.8354
vn -0.4824 -0.2249 0.8466
vn -0.4501 -0.2562 0.8554
vn -0.5433 0.0735 0.8363
vn -0.5772 0.1337 0.8056
vn -0.8597 -0.0933 0.5023
vn -0.8385 -0.0489 0.5428
vn -0.7452 0.1190 0.6562
vn -0.7361 0.0915 0.6707
vn -0.6448 -0.2275 0.7297
vn -0.6409 -0.2323 0.7317
vn -0.8744 -0.2129 0.4360
vn -0.8777 -0.2067 0.4323
vn -0.5026 0.1305 0.8546
vn -0.5187 0.1667 0.8385
vn -0.6228 -0.4845 0.6143
vn 0.6101 -0.6293 0.4814
vn 0.3404 0.0541 0.9387
vn 0.3337 0.0769 0.9395
vn -0.9483 0.0730 0.3090
vn -0.9690 0.0208 0.2461
vn -0.7866 -0.0633 0.6142
vn -0.8328 0.0707 0.5490
vn -0.7131 0.0616 -0.6983
vn -0.7627 0.1272 -0.6342
vn -0.6603 0.0292 -0.7504
vn -0.6851 0.0678 -0.7253
vn -0.3998 -0.0340 -0.9160
vn -0.4087 -0.0467 -0.9115
vn 0.9535 -0.2023 -0.2234
vn -0.9160 0.0670 -0.3955
vn -0.8230 0.0132 -0.5678
vn 0.8204 0.0483 0.5698
vn 0.8348 -0.0106 0.5504
vn -0.9979 0.0438 -0.0483
vn -0.9802 -0.0515 -0.1912
vn 0.0784 0.0532 0.9955
vn 0.1142 -0.0022 0.9935
vn 0.5945 0.0189 0.8039
vn 0.6127 -0.0383 0.7894
vn 0.9163 -0.3573 -0.1810
vn 0.8885 -0.3892 -0.2432
vn -0.7985 0.0438 -0.6004
vn -0.7459 0.0174 -0.6658
vn -0.1766 -0.1866 -0.9664
vn -0.1701 -0.1758 -0.9696
vn 0.0829 -0.1608 -0.9835
vn 0.0632 -0.2052 -0.9767
vn 0.1735 -0.3172 -0.9324
vn 0.2626 -0.1568 -0.9521
vn -0.2446 0.1420 0.9592
vn -0.2432 0.1398 0.9598
vn -0.6085 -0.0519 0.7919
vn -0.6485 0.0249 0.7608
vn -0.5311 -0.4007 -0.7466
vn -0.4587 -0.3096 -0.8329
vn -0.1052 -0.2555 -0.9611
vn -0.0731 -0.2866 -0.9553
vn -0.1253 -0.2433 -0.9618
vn -0.0975 -0.2024 -0.9744
vn -0.2353 -0.0542 -0.9704
vn -0.2277 -0.0469 -0.9726
vn -0.3489 0.1445 -0.9259
vn -0.3066 0.1716 -0.9363
vn -0.7034 0.0579 -0.7084
vn -0.7345 0.0182 -0.6783
vn -0.7723 0.1088 -0.6258
vn -0.6634 0.2221 -0.7145
vn 0.9413 -0.0115 0.3373
vn 0.9435 -0.0724 0.3235
vn -0.2703 -0.0167 -0.9626
vn -0.2524 -0.0023 -0.9676
vn 0.1685 -0.8660 0.4707
vn 0.0543 -0.9156 0.3984
vn -0.4211 -0.3195 -0.8489
vn -0.4581 -0.2644 -0.8487
vn 0.9903 -0.1254 0.0592
vn 0.9871 -0.0619 0.1475
vn 0.9901 -0.1381 0.0231
vn 0.9912 -0.1175 0.0613
vn 0.9712 -0.1953 -0.1365
vn 0.9864 -0.1574 -0.0463
vn -0.4819 0.0014 -0.8762
vn -0.5246 -0.0539 -0.8496
vn -0.5872 -0.0800 -0.8054
vn -0.6152 -0.1180 -0.7795
vn 0.9999 -0.0056 -0.0090
vn 0.9819 -0.1257 -0.1419
vn 0.9378 0.1965 0.2864
vn 0.9393 0.1912 0.2849
vn 0.9658 -0.0801 -0.2467
vn 0.9836 -0.0474 -0.1743
vn 0.8373 0.0615 -0.5433
vn 0.7792 0.0121 -0.6267
vn 0.9196 0.0273 -0.3918
vn 0.9537 0.0690 -0.2929
vn 0.7258 0.1195 -0.6774
vn 0.6326 0.0591 -0.7722
vn 0.8531 -0.0432 -0.5199
vn 0.8796 -0.0242 -0.4752
vn 0.5138 -0.1278 -0.8483
vn 0.5024 -0.1325 -0.8544
vn -0.3086 -0.4055 -0.8604
vn -0.3238 -0.4271 -0.8442
vn -0.5411 -0.1274 -0.8312
vn -0.5229 -0.1072 -0.8456
vn -0.5360 -0.0494 -0.8428
vn -0.5366 -0.0502 -0.8424
vn -0.5828 0.0862 -0.8080
vn -0.5643 0.0642 -0.8230
vn -0.5563 0.1697 -0.8134
vn -0.5108 0.1123 -0.8524
vn 0.9751 -0.1240 -0.1840
vn 0.9873 -0.0978 -0.1249
vn 0.9660 -0.1454 -0.2138
vn 0.9327 -0.1906 -0.3061
vn -0.4034 -0.0600 -0.9131
vn -0.4628 -0.1365 -0.8759
vn -0.2318 -0.0047 -0.9728
vn -0.2204 0.0071 -0.9754
vn 0.9496 0.1040 0.2957
vn 0.9482 0.1100 0.2980
vn -0.5839 0.0475 -0.8104
vn -0.5699 0.0653 -0.8191
vn -0.5693 -0.0189 -0.8219
vn -0.5360 0.0266 -0.8438
vn 0.9725 -0.0570 0.2260
vn 0.9532 0.0635 0.2957
vn -0.3817 -0.3567 0.8527
vn -0.3389 -0.3805 0.8605
vn -0.3174 -0.4905 0.8116
vn -0.3574 -0.5764 0.7349
vn -0.3555 -0.6806 0.6406
vn -0.3272 -0.5958 0.7334
vn -0.1450 -0.7974 0.5858
vn -0.1307 -0.8059 0.5774
vn 0.2709 -0.3139 -0.9100
vn 0.2660 -0.3292 -0.9060
vn 0.0537 0.1220 -0.9911
vn 0.0100 0.1791 -0.9838
vn -0.4345 -0.6017 0.6702
vn 0.0120 -0.7963 0.6047
vn -0.0130 -0.5125 0.8586
vn -0.0708 -0.4861 0.8710
vn -0.0761 -0.4185 0.9050
vn -0.1192 -0.3971 0.9100
vn 0.0085 0.2090 -0.9779
vn -0.0140 0.2391 -0.9709
usemtl None
s off
f 1//1 2//1 3//1
f 3//2 2//2 4//2
f 1//3 3//3 5//3
f 5//4 3//4 6//4
f 1//5 7//5 2//5
f 2//6 7//6 8//6
f 9//7 10//7 11//7
f 11//8 10//8 12//8
f 13//9 14//9 15//9
f 15//10 14//10 16//10
f 17//11 18//11 19//11
f 19//12 18//12 20//12
f 21//13 22//13 23//13
f 23//14 22//14 24//14
f 25//15 26//15 27//15
f 27//16 26//16 28//16
f 29//17 30//17 31//17
f 31//18 30//18 32//18
f 33//19 34//19 35//19
f 35//20 34//20 36//20
f 14//21 37//21 16//21
f 16//22 37//22 38//22
f 22//23 21//23 39//23
f 39//24 21//24 40//24
f 41//25 42//25 43//25
f 43//26 42//26 44//26
f 45//27 46//27 47//27
f 47//28 46//28 48//28
f 49//29 50//29 51//29
f 51//30 50//30 52//30
f 53//31 54//31 55//31
f 55//32 54//32 56//32
f 57//33 27//33 58//33
f 58//34 27//34 59//34
f 22//35 60//35 24//35
f 24//36 60//36 61//36
f 43//37 44//37 62//37
f 62//38 44//38 63//38
f 64//39 65//39 66//39
f 66//40 65//40 67//40
f 68//41 69//41 70//41
f 70//42 69//42 71//42
f 7//43 35//43 8//43
f 8//44 35//44 72//44
f 73//45 74//45 75//45
f 75//46 74//46 76//46
f 77//47 33//47 7//47
f 7//48 33//48 35//48
f 23//49 24//49 78//49
f 78//50 24//50 59//50
f 24//51 61//51 59//51
f 59//52 61//52 58//52
f 79//53 80//53 81//53
f 81//54 80//54 82//54
f 83//55 84//55 85//55
f 85//56 84//56 86//56
f 87//57 88//57 89//57
f 89//58 88//58 90//58
f 62//59 91//59 43//59
f 43//60 91//60 39//60
f 92//61 93//61 94//61
f 94//62 93//62 95//62
f 96//63 25//63 57//63
f 57//64 25//64 27//64
f 66//65 97//65 64//65
f 64//66 97//66 98//66
f 99//67 100//67 101//67
f 101//68 100//68 102//68
f 103//69 104//69 105//69
f 105//70 104//70 106//70
f 107//71 92//71 108//71
f 108//72 92//72 94//72
f 109//73 110//73 111//73
f 111//74 110//74 112//74
f 113//75 109//75 114//75
f 114//76 109//76 111//76
f 114//77 115//77 113//77
f 113//78 115//78 116//78
f 117//79 116//79 118//79
f 118//80 116//80 115//80
f 118//81 119//81 117//81
f 117//82 119//82 120//82
f 121//83 122//83 123//83
f 123//84 122//84 124//84
f 125//85 126//85 127//85
f 127//86 126//86 128//86
f 129//87 130//87 131//87
f 131//88 130//88 132//88
f 133//89 134//89 135//89
f 135//90 134//90 136//90
f 137//91 138//91 139//91
f 139//92 138//92 140//92
f 139//93 141//93 137//93
f 137//94 141//94 142//94
f 141//95 143//95 142//95
f 142//96 143//96 144//96
f 145//97 144//97 146//97
f 146//98 144//98 143//98
f 147//99 148//99 149//99
f 149//100 148//100 150//100
f 151//101 152//101 153//101
f 153//102 152//102 154//102
f 155//103 156//103 111//103
f 111//104 156//104 114//104
f 157//105 158//105 115//105
f 115//106 158//106 118//106
f 127//107 128//107 159//107
f 159//108 128//108 160//108
f 88//109 87//109 161//109
f 161//110 87//110 162//110
f 163//111 164//111 165//111
f 165//112 164//112 166//112
f 143//113 141//113 167//113
f 167//114 141//114 168//114
f 141//115 139//115 168//115
f 168//116 139//116 169//116
f 170//117 171//117 134//117
f 134//118 171//118 140//118
f 134//119 133//119 170//119
f 170//120 133//120 172//120
f 173//121 174//121 129//121
f 129//122 174//122 130//122
f 148//123 147//123 175//123
f 175//124 147//124 176//124
f 177//125 178//125 179//125
f 179//126 178//126 180//126
f 177//127 152//127 181//127
f 181//128 152//128 182//128
f 183//129 184//129 136//129
f 136//130 184//130 135//130
f 185//131 183//131 138//131
f 138//132 183//132 136//132
f 186//133 187//133 144//133
f 144//134 187//134 142//134
f 145//135 178//135 188//135
f 188//136 178//136 189//136
f 195//137 196//137 197//137
f 197//138 196//138 198//138
f 199//139 86//139 200//139
f 200//140 86//140 84//140
f 201//141 90//141 202//141
f 202//142 90//142 88//142
f 161//143 203//143 88//143
f 88//144 203//144 202//144
f 147//145 204//145 176//145
f 176//146 204//146 205//146
f 147//147 149//147 204//147
f 204//148 149//148 206//148
f 208//149 209//149 210//149
f 210//150 209//150 211//150
f 212//151 213//151 214//151
f 214//152 213//152 215//152
f 216//153 164//153 146//153
f 146//154 164//154 180//154
f 157//155 156//155 168//155
f 168//156 156//156 167//156
f 169//157 171//157 158//157
f 158//158 171//158 217//158
f 218//159 219//159 172//159
f 172//160 219//160 170//160
f 161//161 162//161 176//161
f 176//162 162//162 175//162
f 220//163 221//163 222//163
f 222//164 221//164 223//164
f 188//165 186//165 145//165
f 145//166 186//166 144//166
f 137//167 142//167 194//167
f 194//168 142//168 187//168
f 131//169 132//169 192//169
f 192//170 132//170 193//170
f 150//171 191//171 149//171
f 149//172 191//172 190//172
f 149//173 190//173 206//173
f 206//174 190//174 207//174
f 224//175 225//175 226//175
f 226//176 225//176 227//176
f 228//177 229//177 70//177
f 70//178 229//178 230//178
f 48//179 231//179 47//179
f 47//180 231//180 232//180
f 233//181 234//181 215//181
f 215//182 234//182 214//182
f 236//183 237//183 238//183
f 238//184 237//184 239//184
f 23//185 240//185 21//185
f 21//186 240//186 241//186
f 9//187 26//187 10//187
f 10//188 26//188 242//188
f 19//189 243//189 17//189
f 17//190 243//190 244//190
f 78//191 59//191 28//191
f 28//192 59//192 27//192
f 28//193 245//193 78//193
f 78//194 245//194 246//194
f 211//195 236//195 247//195
f 247//196 236//196 238//196
f 248//197 48//197 249//197
f 249//198 48//198 46//198
f 174//199 173//199 160//199
f 160//200 173//200 159//200
f 54//201 73//201 56//201
f 56//202 73//202 75//202
f 234//203 250//203 214//203
f 251//204 241//204 252//204
f 252//205 241//205 240//205
f 167//206 216//206 143//206
f 143//207 216//207 146//207
f 253//208 31//208 254//208
f 254//209 31//209 32//209
f 76//210 255//210 196//210
f 196//211 255//211 256//211
f 238//212 239//212 66//212
f 66//213 239//213 97//213
f 56//214 75//214 257//214
f 257//215 75//215 195//215
f 258//216 259//216 260//216
f 260//217 259//217 257//217
f 261//218 67//218 262//218
f 262//219 67//219 65//219
f 199//220 200//220 263//220
f 263//221 200//221 264//221
f 202//222 224//222 201//222
f 201//223 224//223 226//223
f 203//224 222//224 202//224
f 202//225 222//225 224//225
f 222//226 203//226 220//226
f 220//227 203//227 205//227
f 204//228 153//228 205//228
f 205//229 153//229 220//229
f 153//230 204//230 151//230
f 151//231 204//231 206//231
f 206//232 207//232 151//232
f 151//233 207//233 265//233
f 7//234 1//234 77//234
f 77//235 1//235 5//235
f 2//236 266//236 4//236
f 4//237 266//237 267//237
f 70//238 71//238 228//238
f 228//239 71//239 268//239
f 247//240 238//240 67//240
f 67//241 238//241 66//241
f 269//242 270//242 45//242
f 45//243 270//243 46//243
f 74//244 271//244 76//244
f 76//245 271//245 255//245
f 8//246 272//246 2//246
f 2//247 272//247 266//247
f 101//248 273//248 99//248
f 99//249 273//249 274//249
f 275//250 276//250 277//250
f 277//251 276//251 278//251
f 276//252 279//252 278//252
f 278//253 279//253 280//253
f 104//254 107//254 106//254
f 106//255 107//255 108//255
f 122//256 128//256 124//256
f 124//257 128//257 126//257
f 281//258 225//258 165//258
f 165//259 225//259 223//259
f 153//260 154//260 220//260
f 220//261 154//261 221//261
f 135//262 132//262 133//262
f 133//263 132//263 130//263
f 111//264 112//264 155//264
f 155//265 112//265 166//265
f 156//266 157//266 114//266
f 114//267 157//267 115//267
f 121//268 119//268 219//268
f 219//269 119//269 217//269
f 219//270 218//270 121//270
f 121//271 218//271 122//271
f 218//272 160//272 122//272
f 122//273 160//273 128//273
f 174//274 172//274 130//274
f 130//275 172//275 133//275
f 184//276 193//276 135//276
f 135//277 193//277 132//277
f 237//278 282//278 239//278
f 239//279 282//279 256//279
f 259//280 283//280 257//280
f 257//281 283//281 38//281
f 284//282 285//282 251//282
f 251//283 285//283 241//283
f 286//284 287//284 68//284
f 68//285 287//285 69//285
f 70//286 248//286 68//286
f 68//287 248//287 249//287
f 216//288 167//288 155//288
f 155//289 167//289 156//289
f 168//290 169//290 157//290
f 157//291 169//291 158//291
f 172//292 174//292 218//292
f 218//293 174//293 160//293
f 176//294 205//294 161//294
f 161//295 205//295 203//295
f 100//296 275//296 102//296
f 102//297 275//297 277//297
f 288//298 230//298 253//298
f 253//299 230//299 31//299
f 235//300 289//300 212//300
f 212//301 289//301 213//301
f 210//302 211//302 290//302
f 290//303 211//303 247//303
f 290//304 42//304 210//304
f 210//305 42//305 291//305
f 41//306 40//306 292//306
f 292//307 40//307 285//307
f 78//308 246//308 23//308
f 23//309 246//309 240//309
f 10//310 242//310 14//310
f 14//311 242//311 37//311
f 293//312 294//312 295//312
f 295//313 294//313 36//313
f 296//314 297//314 260//314
f 260//315 297//315 258//315
f 270//316 298//316 46//316
f 46//317 298//317 249//317
f 127//318 299//318 125//318
f 125//319 299//319 300//319
f 301//320 162//320 299//320
f 299//321 162//321 87//321
f 301//322 159//322 302//322
f 302//323 159//323 173//323
f 303//324 148//324 302//324
f 302//325 148//325 175//325
f 131//326 304//326 129//326
f 129//327 304//327 303//327
f 191//328 150//328 305//328
f 305//329 150//329 304//329
f 75//330 76//330 195//330
f 195//331 76//331 196//331
f 197//332 260//332 195//332
f 195//333 260//333 257//333
f 306//334 307//334 16//334
f 16//335 307//335 15//335
f 242//336 55//336 37//336
f 37//337 55//337 56//337
f 290//338 247//338 261//338
f 261//339 247//339 67//339
f 283//340 306//340 38//340
f 38//341 306//341 16//341
f 246//342 245//342 312//342
f 312//343 245//343 313//343
f 314//344 315//344 313//344
f 313//345 315//345 312//345
f 4//346 267//346 316//346
f 316//347 267//347 317//347
f 3//348 4//348 318//348
f 318//349 4//349 316//349
f 319//350 314//350 11//350
f 11//351 314//351 313//351
f 50//352 320//352 52//352
f 52//353 320//353 321//353
f 318//354 309//354 3//354
f 3//355 309//355 6//355
f 309//356 318//356 308//356
f 308//357 318//357 322//357
f 323//358 322//358 316//358
f 316//359 322//359 318//359
f 324//360 325//360 315//360
f 315//361 325//361 326//361
f 320//362 327//362 321//362
f 321//363 327//363 319//363
f 328//364 324//364 314//364
f 314//365 324//365 315//365
f 13//366 15//366 52//366
f 52//367 15//367 51//367
f 51//368 15//368 329//368
f 329//369 15//369 307//369
f 325//370 324//370 330//370
f 330//371 324//371 328//371
f 331//372 332//372 320//372
f 320//373 332//373 327//373
f 333//374 334//374 335//374
f 335//375 334//375 336//375
f 337//376 338//376 322//376
f 322//377 338//377 308//377
f 339//378 333//378 340//378
f 340//379 333//379 335//379
f 322//380 323//380 337//380
f 337//381 323//381 341//381
f 14//382 13//382 10//382
f 10//383 13//383 12//383
f 52//384 321//384 13//384
f 13//385 321//385 12//385
f 336//386 342//386 243//386
f 243//387 342//387 343//387
f 243//388 343//388 244//388
f 244//389 343//389 344//389
f 345//390 346//390 344//390
f 344//391 346//391 244//391
f 243//392 19//392 336//392
f 336//393 19//393 335//393
f 19//394 20//394 335//394
f 335//395 20//395 340//395
f 62//396 63//396 79//396
f 79//397 63//397 80//397
f 226//398 227//398 264//398
f 264//399 227//399 82//399
f 89//400 90//400 83//400
f 83//401 90//401 84//401
f 64//402 98//402 86//402
f 86//403 98//403 85//403
f 60//404 91//404 92//404
f 92//405 91//405 93//405
f 347//406 110//406 81//406
f 81//407 110//407 95//407
f 74//408 73//408 99//408
f 99//409 73//409 100//409
f 126//410 125//410 102//410
f 102//411 125//411 101//411
f 57//412 58//412 103//412
f 103//413 58//413 104//413
f 116//414 117//414 106//414
f 106//415 117//415 105//415
f 61//416 60//416 107//416
f 107//417 60//417 92//417
f 109//418 113//418 94//418
f 94//419 113//419 108//419
f 65//420 64//420 199//420
f 199//421 64//421 86//421
f 84//422 90//422 200//422
f 200//423 90//423 201//423
f 65//424 199//424 262//424
f 262//425 199//425 263//425
f 226//426 264//426 201//426
f 201//427 264//427 200//427
f 125//428 300//428 101//428
f 101//429 300//429 273//429
f 98//430 271//430 85//430
f 85//431 271//431 274//431
f 54//432 53//432 275//432
f 275//433 53//433 276//433
f 123//434 124//434 278//434
f 278//435 124//435 277//435
f 53//436 96//436 276//436
f 276//437 96//437 279//437
f 117//438 120//438 105//438
f 105//439 120//439 280//439
f 58//440 61//440 104//440
f 104//441 61//441 107//441
f 113//442 116//442 108//442
f 108//443 116//443 106//443
f 73//444 54//444 100//444
f 100//445 54//445 275//445
f 124//446 126//446 277//446
f 277//447 126//447 102//447
f 68//448 249//448 286//448
f 286//449 249//449 298//449
f 8//450 72//450 272//450
f 272//451 72//451 349//451
f 350//452 267//452 351//452
f 351//453 267//453 266//453
f 352//454 353//454 269//454
f 269//455 353//455 270//455
f 351//456 266//456 252//456
f 252//457 266//457 272//457
f 72//458 294//458 349//458
f 349//459 294//459 354//459
f 208//460 355//460 286//460
f 286//461 355//461 287//461
f 235//462 356//462 289//462
f 353//463 209//463 270//463
f 270//464 209//464 298//464
f 326//465 317//465 350//465
f 350//466 317//466 267//466
f 357//467 323//467 317//467
f 317//468 323//468 316//468
f 358//469 341//469 357//469
f 357//470 341//470 323//470
f 336//471 334//471 342//471
f 342//472 334//472 359//472
f 331//473 360//473 342//473
f 342//474 360//474 343//474
f 360//475 361//475 343//475
f 343//476 361//476 344//476
f 362//477 345//477 361//477
f 361//478 345//478 344//478
f 288//479 363//479 248//479
f 248//480 363//480 48//480
f 364//481 365//481 254//481
f 254//482 365//482 253//482
f 254//483 366//483 364//483
f 364//484 366//484 367//484
f 365//485 364//485 363//485
f 363//486 364//486 368//486
f 37//487 56//487 38//487
f 38//488 56//488 257//488
f 369//489 368//489 367//489
f 367//490 368//490 364//490
f 231//491 370//491 232//491
f 182//492 372//492 181//492
f 181//493 372//493 373//493
f 373//494 374//494 181//494
f 181//495 374//495 189//495
f 261//496 44//496 290//496
f 290//497 44//497 42//497
f 262//498 63//498 261//498
f 261//499 63//499 44//499
f 295//500 71//500 293//500
f 293//501 71//501 69//501
f 80//502 263//502 82//502
f 82//503 263//503 264//503
f 179//504 154//504 177//504
f 177//505 154//505 152//505
f 265//506 182//506 151//506
f 151//507 182//507 152//507
f 221//508 163//508 223//508
f 223//509 163//509 165//509
f 347//510 227//510 281//510
f 281//511 227//511 225//511
f 310//512 268//512 295//512
f 295//513 268//513 71//513
f 222//514 223//514 224//514
f 224//515 223//515 225//515
f 163//516 221//516 179//516
f 179//517 221//517 154//517
f 293//518 69//518 375//518
f 375//519 69//519 287//519
f 292//520 291//520 41//520
f 41//521 291//521 42//521
f 63//522 262//522 80//522
f 80//523 262//523 263//523
f 81//524 82//524 347//524
f 347//525 82//525 227//525
f 376//526 355//526 292//526
f 292//527 355//527 291//527
f 295//528 36//528 310//528
f 310//529 36//529 34//529
f 43//530 39//530 41//530
f 41//531 39//531 40//531
f 22//532 39//532 60//532
f 60//533 39//533 91//533
f 81//534 95//534 79//534
f 79//535 95//535 93//535
f 110//536 347//536 112//536
f 112//537 347//537 281//537
f 164//538 216//538 166//538
f 166//539 216//539 155//539
f 178//540 145//540 180//540
f 180//541 145//541 146//541
f 178//542 177//542 189//542
f 189//543 177//543 181//543
f 179//544 180//544 163//544
f 163//545 180//545 164//545
f 112//546 281//546 166//546
f 166//547 281//547 165//547
f 376//548 284//548 375//548
f 375//549 284//549 354//549
f 21//550 241//550 40//550
f 40//551 241//551 285//551
f 35//552 36//552 72//552
f 72//553 36//553 294//553
f 79//554 93//554 62//554
f 62//555 93//555 91//555
f 94//556 95//556 109//556
f 109//557 95//557 110//557
f 375//558 354//558 293//558
f 293//559 354//559 294//559
f 374//560 188//560 189//560
f 265//561 372//561 182//561
f 286//562 298//562 208//562
f 208//563 298//563 209//563
f 349//564 251//564 272//564
f 272//565 251//565 252//565
f 349//566 354//566 251//566
f 251//567 354//567 284//567
f 317//568 326//568 357//568
f 357//569 326//569 325//569
f 357//570 325//570 358//570
f 358//571 325//571 330//571
f 342//572 359//572 331//572
f 331//573 359//573 332//573
f 197//574 198//574 348//574
f 312//575 350//575 246//575
f 246//576 350//576 351//576
f 237//577 236//577 352//577
f 352//578 236//578 353//578
f 246//579 351//579 240//579
f 240//580 351//580 252//580
f 210//581 291//581 208//581
f 208//582 291//582 355//582
f 236//583 211//583 353//583
f 353//584 211//584 209//584
f 260//585 197//585 296//585
f 296//586 197//586 348//586
f 315//587 326//587 312//587
f 312//588 326//588 350//588
f 320//589 50//589 331//589
f 331//590 50//590 360//590
f 50//591 49//591 360//591
f 360//592 49//592 361//592
f 49//593 377//593 361//593
f 361//594 377//594 362//594
f 375//595 287//595 376//595
f 376//596 287//596 355//596
f 292//597 285//597 376//597
f 376//598 285//598 284//598
f 245//599 9//599 313//599
f 313//600 9//600 11//600
f 55//601 242//601 25//601
f 25//602 242//602 26//602
f 55//603 25//603 53//603
f 53//604 25//604 96//604
f 123//605 120//605 121//605
f 121//606 120//606 119//606
f 134//607 140//607 136//607
f 136//608 140//608 138//608
f 171//609 169//609 140//609
f 140//610 169//610 139//610
f 194//611 185//611 137//611
f 137//612 185//612 138//612
f 47//613 215//613 45//613
f 45//614 215//614 213//614
f 219//615 217//615 170//615
f 170//616 217//616 171//616
f 232//617 233//617 47//617
f 47//618 233//618 215//618
f 245//619 28//619 9//619
f 9//620 28//620 26//620
f 239//621 256//621 97//621
f 97//622 256//622 255//622
f 97//623 255//623 98//623
f 98//624 255//624 271//624
f 85//625 274//625 83//625
f 83//626 274//626 273//626
f 105//627 280//627 103//627
f 103//628 280//628 279//628
f 158//629 217//629 118//629
f 118//630 217//630 119//630
f 196//631 256//631 198//631
f 198//632 256//632 282//632
f 45//633 213//633 269//633
f 269//634 213//634 289//634
f 89//635 300//635 87//635
f 87//636 300//636 299//636
f 159//637 301//637 127//637
f 127//638 301//638 299//638
f 162//639 301//639 175//639
f 175//640 301//640 302//640
f 129//641 303//641 173//641
f 173//642 303//642 302//642
f 148//643 303//643 150//643
f 150//644 303//644 304//644
f 304//645 131//645 305//645
f 305//646 131//646 192//646
f 321//647 319//647 12//647
f 12//648 319//648 11//648
f 314//649 319//649 328//649
f 328//650 319//650 327//650
f 328//651 327//651 330//651
f 330//652 327//652 332//652
f 337//653 341//653 333//653
f 333//654 341//654 334//654
f 338//655 337//655 339//655
f 339//656 337//656 333//656
f 83//657 273//657 89//657
f 89//658 273//658 300//658
f 99//659 274//659 74//659
f 74//660 274//660 271//660
f 103//661 279//661 57//661
f 57//662 279//662 96//662
f 278//663 280//663 123//663
f 123//664 280//664 120//664
f 269//665 289//665 352//665
f 352//666 289//666 356//666
f 334//667 341//667 359//667
f 359//668 341//668 358//668
f 330//669 332//669 358//669
f 358//670 332//670 359//670
f 352//671 356//671 237//671
f 237//672 356//672 282//672
f 229//673 29//673 230//673
f 230//674 29//674 31//674
f 248//675 70//675 288//675
f 288//676 70//676 230//676
f 253//677 365//677 288//677
f 288//678 365//678 363//678
f 231//679 48//679 368//679
f 368//680 48//680 363//680
f 51//681 329//681 49//681
f 49//682 329//682 377//682
f 17//683 244//683 378//683
f 378//684 244//684 346//684
f 368//685 369//685 231//685
f 231//686 369//686 370//686
f 32//687 379//687 254//687
f 254//688 379//688 366//688
f 30//689 311//689 32//689
f 32//690 311//690 379//690
f 18//691 17//691 371//691
f 371//692 17//692 378//692
f 380//693 381//693 382//693
f 382//694 381//694 383//694
f 383//695 384//695 382//695
f 382//696 384//696 385//696
f 383//697 381//697 386//697
f 386//698 381//698 387//698
f 388//699 389//699 390//699
f 390//700 389//700 391//700
f 392//701 393//701 394//701
f 394//702 393//702 395//702
f 396//703 397//703 398//703
f 398//704 397//704 399//704
f 400//705 401//705 402//705
f 402//706 401//706 403//706
f 404//707 405//707 406//707
f 406//708 405//708 407//708
f 408//709 409//709 410//709
f 410//710 409//710 411//710
f 412//711 413//711 414//711
f 414//712 413//712 415//712
f 416//713 417//713 392//713
f 392//714 417//714 393//714
f 402//715 418//715 400//715
f 400//716 418//716 419//716
f 420//717 421//717 422//717
f 422//718 421//718 423//718
f 424//719 425//719 426//719
f 426//720 425//720 427//720
f 428//721 429//721 430//721
f 430//722 429//722 431//722
f 432//723 433//723 434//723
f 434//724 433//724 435//724
f 436//725 437//725 406//725
f 406//726 437//726 438//726
f 402//727 403//727 439//727
f 439//728 403//728 440//728
f 441//729 420//729 442//729
f 442//730 420//730 422//730
f 443//731 444//731 445//731
f 445//732 444//732 446//732
f 447//733 448//733 449//733
f 449//734 448//734 450//734
f 451//735 414//735 387//735
f 387//736 414//736 386//736
f 452//737 453//737 454//737
f 454//738 453//738 455//738
f 414//739 415//739 386//739
f 386//740 415//740 456//740
f 401//741 457//741 403//741
f 403//742 457//742 438//742
f 403//743 438//743 440//743
f 440//744 438//744 437//744
f 458//745 459//745 460//745
f 460//746 459//746 461//746
f 462//747 463//747 464//747
f 464//748 463//748 465//748
f 466//749 467//749 468//749
f 468//750 467//750 469//750
f 418//751 470//751 422//751
f 422//752 470//752 442//752
f 471//753 472//753 473//753
f 473//754 472//754 474//754
f 406//755 407//755 436//755
f 436//756 407//756 475//756
f 476//757 477//757 446//757
f 446//758 477//758 445//758
f 478//759 479//759 480//759
f 480//760 479//760 481//760
f 482//761 483//761 484//761
f 484//762 483//762 485//762
f 486//763 487//763 474//763
f 474//764 487//764 473//764
f 488//765 489//765 490//765
f 490//766 489//766 491//766
f 490//767 491//767 492//767
f 492//768 491//768 493//768
f 494//769 495//769 493//769
f 493//770 495//770 492//770
f 495//771 494//771 496//771
f 496//772 494//772 497//772
f 498//773 499//773 497//773
f 497//774 499//774 496//774
f 500//775 501//775 502//775
f 502//776 501//776 503//776
f 504//777 505//777 506//777
f 506//778 505//778 507//778
f 508//779 509//779 510//779
f 510//780 509//780 511//780
f 512//781 513//781 514//781
f 514//782 513//782 515//782
f 516//783 517//783 518//783
f 518//784 517//784 519//784
f 520//785 521//785 519//785
f 519//786 521//786 518//786
f 522//787 523//787 520//787
f 520//788 523//788 521//788
f 523//789 522//789 524//789
f 524//790 522//790 525//790
f 526//791 527//791 528//791
f 528//792 527//792 529//792
f 530//793 531//793 532//793
f 532//794 531//794 533//794
f 492//795 534//795 490//795
f 490//796 534//796 535//796
f 496//797 536//797 495//797
f 495//798 536//798 537//798
f 538//799 504//799 539//799
f 539//800 504//800 506//800
f 540//801 469//801 541//801
f 541//802 469//802 467//802
f 542//803 543//803 544//803
f 544//804 543//804 545//804
f 546//805 521//805 547//805
f 547//806 521//806 523//806
f 548//807 518//807 546//807
f 546//808 518//808 521//808
f 516//809 549//809 513//809
f 513//810 549//810 550//810
f 551//811 515//811 550//811
f 550//812 515//812 513//812
f 509//813 552//813 511//813
f 511//814 552//814 553//814
f 528//815 554//815 526//815
f 526//816 554//816 555//816
f 556//817 557//817 558//817
f 558//818 557//818 559//818
f 560//819 531//819 561//819
f 561//820 531//820 556//820
f 514//821 562//821 512//821
f 512//822 562//822 563//822
f 512//823 563//823 517//823
f 517//824 563//824 564//824
f 520//825 565//825 522//825
f 522//826 565//826 566//826
f 567//827 558//827 568//827
f 568//828 558//828 525//828
f 574//829 575//829 576//829
f 576//830 575//830 577//830
f 463//831 462//831 578//831
f 578//832 462//832 579//832
f 467//833 466//833 580//833
f 580//834 466//834 581//834
f 580//835 582//835 467//835
f 467//836 582//836 541//836
f 583//837 584//837 555//837
f 555//838 584//838 526//838
f 526//839 584//839 527//839
f 527//840 584//840 585//840
f 587//841 588//841 589//841
f 589//842 588//842 590//842
f 591//843 592//843 593//843
f 593//844 592//844 594//844
f 595//845 524//845 544//845
f 544//846 524//846 559//846
f 547//847 534//847 546//847
f 546//848 534//848 537//848
f 548//849 536//849 549//849
f 549//850 536//850 596//850
f 550//851 597//851 551//851
f 551//852 597//852 598//852
f 541//853 555//853 540//853
f 540//854 555//854 554//854
f 599//855 600//855 601//855
f 601//856 600//856 602//856
f 522//857 566//857 525//857
f 525//858 566//858 568//858
f 519//859 573//859 520//859
f 520//860 573//860 565//860
f 571//861 508//861 572//861
f 572//862 508//862 510//862
f 570//863 569//863 527//863
f 527//864 569//864 529//864
f 586//865 570//865 585//865
f 585//866 570//866 527//866
f 603//867 604//867 605//867
f 605//868 604//868 606//868
f 607//869 449//869 608//869
f 608//870 449//870 609//870
f 232//871 610//871 426//871
f 426//872 610//872 424//872
f 593//873 234//873 591//873
f 591//874 234//874 233//874
f 612//875 613//875 614//875
f 614//876 613//876 615//876
f 401//877 400//877 616//877
f 616//878 400//878 617//878
f 618//879 405//879 389//879
f 389//880 405//880 391//880
f 619//881 620//881 396//881
f 396//882 620//882 397//882
f 406//883 438//883 404//883
f 404//884 438//884 457//884
f 621//885 622//885 457//885
f 457//886 622//886 404//886
f 614//887 615//887 623//887
f 623//888 615//888 587//888
f 425//889 424//889 624//889
f 624//890 424//890 625//890
f 552//891 538//891 553//891
f 553//892 538//892 539//892
f 454//893 455//893 432//893
f 432//894 455//894 433//894
f 593//895 250//895 234//895
f 616//896 617//896 626//896
f 626//897 617//897 627//897
f 524//898 595//898 523//898
f 523//899 595//899 547//899
f 628//900 629//900 410//900
f 410//901 629//901 408//901
f 630//902 631//902 575//902
f 575//903 631//903 452//903
f 477//904 612//904 445//904
f 445//905 612//905 614//905
f 577//906 454//906 632//906
f 632//907 454//907 432//907
f 632//908 259//908 633//908
f 633//909 259//909 258//909
f 444//910 443//910 634//910
f 634//911 443//911 635//911
f 636//912 578//912 637//912
f 637//913 578//913 579//913
f 605//914 606//914 581//914
f 581//915 606//915 580//915
f 606//916 600//916 580//916
f 580//917 600//917 582//917
f 583//918 582//918 599//918
f 599//919 582//919 600//919
f 599//920 532//920 583//920
f 583//921 532//921 584//921
f 585//922 584//922 533//922
f 533//923 584//923 532//923
f 638//924 586//924 533//924
f 533//925 586//925 585//925
f 386//926 456//926 383//926
f 383//927 456//927 384//927
f 639//928 640//928 380//928
f 380//929 640//929 381//929
f 641//930 447//930 607//930
f 607//931 447//931 449//931
f 445//932 614//932 443//932
f 443//933 614//933 623//933
f 425//934 642//934 427//934
f 427//935 642//935 643//935
f 631//936 644//936 452//936
f 452//937 644//937 453//937
f 640//938 645//938 381//938
f 381//939 645//939 387//939
f 646//940 647//940 481//940
f 481//941 647//941 480//941
f 648//942 649//942 650//942
f 650//943 649//943 651//943
f 652//944 653//944 648//944
f 648//945 653//945 649//945
f 487//946 486//946 482//946
f 482//947 486//947 483//947
f 505//948 504//948 500//948
f 500//949 504//949 501//949
f 602//950 604//950 543//950
f 543//951 604//951 654//951
f 601//952 530//952 599//952
f 599//953 530//953 532//953
f 509//954 508//954 515//954
f 515//955 508//955 514//955
f 490//956 535//956 488//956
f 488//957 535//957 545//957
f 495//958 537//958 492//958
f 492//959 537//959 534//959
f 596//960 499//960 597//960
f 597//961 499//961 503//961
f 501//962 598//962 503//962
f 503//963 598//963 597//963
f 504//964 538//964 501//964
f 501//965 538//965 598//965
f 515//966 551//966 509//966
f 509//967 551//967 552//967
f 508//968 571//968 514//968
f 514//969 571//969 562//969
f 630//970 655//970 612//970
f 612//971 655//971 613//971
f 416//972 283//972 632//972
f 632//973 283//973 259//973
f 617//974 656//974 627//974
f 627//975 656//975 657//975
f 448//976 658//976 450//976
f 450//977 658//977 659//977
f 624//978 625//978 450//978
f 450//979 625//979 449//979
f 534//980 547//980 535//980
f 535//981 547//981 595//981
f 536//982 548//982 537//982
f 537//983 548//983 546//983
f 538//984 552//984 598//984
f 598//985 552//985 551//985
f 582//986 583//986 541//986
f 541//987 583//987 555//987
f 650//988 651//988 478//988
f 478//989 651//989 479//989
f 410//990 609//990 628//990
f 628//991 609//991 660//991
f 592//992 661//992 594//992
f 594//993 661//993 611//993
f 623//994 587//994 662//994
f 662//995 587//995 589//995
f 663//996 421//996 589//996
f 589//997 421//997 662//997
f 656//998 419//998 664//998
f 664//999 419//999 423//999
f 457//1000 401//1000 621//1000
f 621//1001 401//1001 616//1001
f 417//1002 618//1002 393//1002
f 393//1003 618//1003 389//1003
f 412//1004 665//1004 666//1004
f 666//1005 665//1005 667//1005
f 258//1006 297//1006 633//1006
f 633//1007 297//1007 668//1007
f 624//1008 669//1008 425//1008
f 425//1009 669//1009 642//1009
f 670//1010 671//1010 507//1010
f 507//1011 671//1011 506//1011
f 469//1012 540//1012 671//1012
f 671//1013 540//1013 672//1013
f 553//1014 539//1014 673//1014
f 673//1015 539//1015 672//1015
f 554//1016 528//1016 673//1016
f 673//1017 528//1017 674//1017
f 674//1018 675//1018 511//1018
f 511//1019 675//1019 510//1019
f 569//1020 676//1020 529//1020
f 529//1021 676//1021 675//1021
f 575//1022 452//1022 577//1022
f 577//1023 452//1023 454//1023
f 632//1024 633//1024 577//1024
f 577//1025 633//1025 576//1025
f 394//1026 307//1026 392//1026
f 392//1027 307//1027 306//1027
f 432//1028 434//1028 417//1028
f 417//1029 434//1029 618//1029
f 443//1030 623//1030 635//1030
f 635//1031 623//1031 662//1031
f 392//1032 306//1032 416//1032
f 416//1033 306//1033 283//1033
f 680//1034 622//1034 681//1034
f 681//1035 622//1035 621//1035
f 681//1036 682//1036 680//1036
f 680//1037 682//1037 683//1037
f 380//1038 684//1038 639//1038
f 639//1039 684//1039 685//1039
f 382//1040 686//1040 380//1040
f 380//1041 686//1041 684//1041
f 680//1042 683//1042 390//1042
f 390//1043 683//1043 687//1043
f 430//1044 431//1044 688//1044
f 688//1045 431//1045 689//1045
f 686//1046 382//1046 678//1046
f 678//1047 382//1047 385//1047
f 678//1048 677//1048 686//1048
f 686//1049 677//1049 690//1049
f 691//1050 684//1050 690//1050
f 690//1051 684//1051 686//1051
f 692//1052 682//1052 693//1052
f 693//1053 682//1053 694//1053
f 687//1054 695//1054 689//1054
f 689//1055 695//1055 688//1055
f 682//1056 692//1056 683//1056
f 683//1057 692//1057 696//1057
f 429//1058 394//1058 431//1058
f 431//1059 394//1059 395//1059
f 429//1060 329//1060 394//1060
f 394//1061 329//1061 307//1061
f 696//1062 692//1062 697//1062
f 697//1063 692//1063 693//1063
f 695//1064 698//1064 688//1064
f 688//1065 698//1065 699//1065
f 700//1066 701//1066 702//1066
f 702//1067 701//1067 703//1067
f 677//1068 704//1068 690//1068
f 690//1069 704//1069 705//1069
f 702//1070 703//1070 706//1070
f 706//1071 703//1071 707//1071
f 690//1072 705//1072 691//1072
f 691//1073 705//1073 708//1073
f 393//1074 389//1074 395//1074
f 395//1075 389//1075 388//1075
f 431//1076 395//1076 689//1076
f 689//1077 395//1077 388//1077
f 700//1078 620//1078 709//1078
f 709//1079 620//1079 710//1079
f 620//1080 619//1080 710//1080
f 710//1081 619//1081 711//1081
f 619//1082 346//1082 711//1082
f 711//1083 346//1083 345//1083
f 702//1084 397//1084 700//1084
f 700//1085 397//1085 620//1085
f 397//1086 702//1086 399//1086
f 399//1087 702//1087 706//1087
f 442//1088 458//1088 441//1088
f 441//1089 458//1089 460//1089
f 461//1090 603//1090 636//1090
f 636//1091 603//1091 605//1091
f 468//1092 465//1092 466//1092
f 466//1093 465//1093 463//1093
f 464//1094 476//1094 462//1094
f 462//1095 476//1095 446//1095
f 472//1096 470//1096 474//1096
f 474//1097 470//1097 439//1097
f 471//1098 489//1098 459//1098
f 459//1099 489//1099 712//1099
f 479//1100 455//1100 481//1100
f 481//1101 455//1101 453//1101
f 480//1102 507//1102 478//1102
f 478//1103 507//1103 505//1103
f 483//1104 437//1104 485//1104
f 485//1105 437//1105 436//1105
f 484//1106 497//1106 482//1106
f 482//1107 497//1107 494//1107
f 440//1108 486//1108 439//1108
f 439//1109 486//1109 474//1109
f 487//1110 493//1110 473//1110
f 473//1111 493//1111 491//1111
f 462//1112 446//1112 579//1112
f 579//1113 446//1113 444//1113
f 463//1114 578//1114 466//1114
f 466//1115 578//1115 581//1115
f 637//1116 579//1116 634//1116
f 634//1117 579//1117 444//1117
f 578//1118 636//1118 581//1118
f 581//1119 636//1119 605//1119
f 647//1120 670//1120 480//1120
f 480//1121 670//1121 507//1121
f 646//1122 644//1122 464//1122
f 464//1123 644//1123 476//1123
f 649//1124 435//1124 651//1124
f 651//1125 435//1125 433//1125
f 650//1126 500//1126 648//1126
f 648//1127 500//1127 502//1127
f 653//1128 475//1128 649//1128
f 649//1129 475//1129 435//1129
f 652//1130 498//1130 484//1130
f 484//1131 498//1131 497//1131
f 437//1132 483//1132 440//1132
f 440//1133 483//1133 486//1133
f 482//1134 494//1134 487//1134
f 487//1135 494//1135 493//1135
f 651//1136 433//1136 479//1136
f 479//1137 433//1137 455//1137
f 478//1138 505//1138 650//1138
f 650//1139 505//1139 500//1139
f 669//1140 624//1140 659//1140
f 659//1141 624//1141 450//1141
f 387//1142 645//1142 451//1142
f 451//1143 645//1143 714//1143
f 640//1144 639//1144 715//1144
f 715//1145 639//1145 716//1145
f 642//1146 717//1146 643//1146
f 643//1147 717//1147 718//1147
f 645//1148 640//1148 626//1148
f 626//1149 640//1149 715//1149
f 719//1150 665//1150 714//1150
f 714//1151 665//1151 451//1151
f 658//1152 720//1152 659//1152
f 659//1153 720//1153 590//1153
f 661//1154 721//1154 611//1154
f 669//1155 588//1155 642//1155
f 642//1156 588//1156 717//1156
f 639//1157 685//1157 716//1157
f 716//1158 685//1158 694//1158
f 722//1159 685//1159 691//1159
f 691//1160 685//1160 684//1160
f 723//1161 722//1161 708//1161
f 708//1162 722//1162 691//1162
f 700//1163 709//1163 701//1163
f 701//1164 709//1164 724//1164
f 710//1165 725//1165 709//1165
f 709//1166 725//1166 699//1166
f 711//1167 726//1167 710//1167
f 710//1168 726//1168 725//1168
f 711//1169 345//1169 726//1169
f 726//1170 345//1170 362//1170
f 424//1171 727//1171 625//1171
f 625//1172 727//1172 660//1172
f 628//1173 728//1173 629//1173
f 629//1174 728//1174 729//1174
f 367//1175 366//1175 729//1175
f 729//1176 366//1176 629//1176
f 728//1177 727//1177 729//1177
f 729//1178 727//1178 730//1178
f 632//1179 432//1179 416//1179
f 416//1180 432//1180 417//1180
f 729//1181 730//1181 367//1181
f 367//1182 730//1182 369//1182
f 610//1183 232//1183 370//1183
f 731//1184 732//1184 561//1184
f 561//1185 732//1185 560//1185
f 731//1186 561//1186 733//1186
f 733//1187 561//1187 567//1187
f 421//1188 420//1188 662//1188
f 662//1189 420//1189 635//1189
f 420//1190 441//1190 635//1190
f 635//1191 441//1191 634//1191
f 448//1192 447//1192 667//1192
f 667//1193 447//1193 666//1193
f 460//1194 461//1194 637//1194
f 637//1195 461//1195 636//1195
f 531//1196 530//1196 556//1196
f 556//1197 530//1197 557//1197
f 531//1198 560//1198 533//1198
f 533//1199 560//1199 638//1199
f 601//1200 602//1200 542//1200
f 542//1201 602//1201 543//1201
f 604//1202 603//1202 654//1202
f 654//1203 603//1203 712//1203
f 447//1204 641//1204 666//1204
f 666//1205 641//1205 679//1205
f 604//1206 602//1206 606//1206
f 606//1207 602//1207 600//1207
f 530//1208 601//1208 557//1208
f 557//1209 601//1209 542//1209
f 658//1210 448//1210 734//1210
f 734//1211 448//1211 667//1211
f 421//1212 663//1212 423//1212
f 423//1213 663//1213 664//1213
f 441//1214 460//1214 634//1214
f 634//1215 460//1215 637//1215
f 603//1216 461//1216 712//1216
f 712//1217 461//1217 459//1217
f 663//1218 720//1218 664//1218
f 664//1219 720//1219 735//1219
f 413//1220 412//1220 679//1220
f 679//1221 412//1221 666//1221
f 419//1222 418//1222 423//1222
f 423//1223 418//1223 422//1223
f 470//1224 418//1224 439//1224
f 439//1225 418//1225 402//1225
f 472//1226 471//1226 458//1226
f 458//1227 471//1227 459//1227
f 489//1228 488//1228 712//1228
f 712//1229 488//1229 654//1229
f 544//1230 545//1230 595//1230
f 595//1231 545//1231 535//1231
f 558//1232 559//1232 525//1232
f 525//1233 559//1233 524//1233
f 558//1234 567//1234 556//1234
f 556//1235 567//1235 561//1235
f 544//1236 559//1236 542//1236
f 542//1237 559//1237 557//1237
f 488//1238 545//1238 654//1238
f 654//1239 545//1239 543//1239
f 719//1240 657//1240 734//1240
f 734//1241 657//1241 735//1241
f 400//1242 419//1242 617//1242
f 617//1243 419//1243 656//1243
f 665//1244 412//1244 451//1244
f 451//1245 412//1245 414//1245
f 470//1246 472//1246 442//1246
f 442//1247 472//1247 458//1247
f 489//1248 471//1248 491//1248
f 491//1249 471//1249 473//1249
f 665//1250 719//1250 667//1250
f 667//1251 719//1251 734//1251
f 567//1252 568//1252 733//1252
f 560//1253 732//1253 638//1253
f 588//1254 669//1254 590//1254
f 590//1255 669//1255 659//1255
f 626//1256 627//1256 645//1256
f 645//1257 627//1257 714//1257
f 714//1258 627//1258 719//1258
f 719//1259 627//1259 657//1259
f 693//1260 694//1260 722//1260
f 722//1261 694//1261 685//1261
f 697//1262 693//1262 723//1262
f 723//1263 693//1263 722//1263
f 698//1264 724//1264 699//1264
f 699//1265 724//1265 709//1265
f 713//1266 574//1266 576//1266
f 715//1267 716//1267 621//1267
f 621//1268 716//1268 681//1268
f 717//1269 615//1269 718//1269
f 718//1270 615//1270 613//1270
f 626//1271 715//1271 616//1271
f 616//1272 715//1272 621//1272
f 720//1273 663//1273 590//1273
f 590//1274 663//1274 589//1274
f 588//1275 587//1275 717//1275
f 717//1276 587//1276 615//1276
f 713//1277 576//1277 668//1277
f 668//1278 576//1278 633//1278
f 716//1279 694//1279 681//1279
f 681//1280 694//1280 682//1280
f 725//1281 430//1281 699//1281
f 699//1282 430//1282 688//1282
f 726//1283 428//1283 725//1283
f 725//1284 428//1284 430//1284
f 362//1285 377//1285 726//1285
f 726//1286 377//1286 428//1286
f 720//1287 658//1287 735//1287
f 735//1288 658//1288 734//1288
f 657//1289 656//1289 735//1289
f 735//1290 656//1290 664//1290
f 390//1291 391//1291 680//1291
f 680//1292 391//1292 622//1292
f 405//1293 618//1293 407//1293
f 407//1294 618//1294 434//1294
f 475//1295 407//1295 435//1295
f 435//1296 407//1296 434//1296
f 499//1297 498//1297 503//1297
f 503//1298 498//1298 502//1298
f 517//1299 516//1299 512//1299
f 512//1300 516//1300 513//1300
f 549//1301 516//1301 548//1301
f 548//1302 516//1302 518//1302
f 517//1303 564//1303 519//1303
f 519//1304 564//1304 573//1304
f 592//1305 591//1305 427//1305
f 427//1306 591//1306 426//1306
f 549//1307 596//1307 550//1307
f 550//1308 596//1308 597//1308
f 591//1309 233//1309 426//1309
f 426//1310 233//1310 232//1310
f 405//1311 404//1311 391//1311
f 391//1312 404//1312 622//1312
f 631//1313 630//1313 477//1313
f 477//1314 630//1314 612//1314
f 644//1315 631//1315 476//1315
f 476//1316 631//1316 477//1316
f 647//1317 646//1317 465//1317
f 465//1318 646//1318 464//1318
f 653//1319 652//1319 485//1319
f 485//1320 652//1320 484//1320
f 499//1321 596//1321 496//1321
f 496//1322 596//1322 536//1322
f 655//1323 630//1323 574//1323
f 574//1324 630//1324 575//1324
f 661//1325 592//1325 643//1325
f 643//1326 592//1326 427//1326
f 671//1327 670//1327 469//1327
f 469//1328 670//1328 468//1328
f 671//1329 672//1329 506//1329
f 506//1330 672//1330 539//1330
f 673//1331 672//1331 554//1331
f 554//1332 672//1332 540//1332
f 673//1333 674//1333 553//1333
f 553//1334 674//1334 511//1334
f 675//1335 674//1335 529//1335
f 529//1336 674//1336 528//1336
f 675//1337 676//1337 510//1337
f 510//1338 676//1338 572//1338
f 390//1339 687//1339 388//1339
f 388//1340 687//1340 689//1340
f 695//1341 687//1341 696//1341
f 696//1342 687//1342 683//1342
f 698//1343 695//1343 697//1343
f 697//1344 695//1344 696//1344
f 701//1345 708//1345 703//1345
f 703//1346 708//1346 705//1346
f 703//1347 705//1347 707//1347
f 707//1348 705//1348 704//1348
f 670//1349 647//1349 468//1349
f 468//1350 647//1350 465//1350
f 644//1351 646//1351 453//1351
f 453//1352 646//1352 481//1352
f 475//1353 653//1353 436//1353
f 436//1354 653//1354 485//1354
f 498//1355 652//1355 502//1355
f 502//1356 652//1356 648//1356
f 721//1357 661//1357 718//1357
f 718//1358 661//1358 643//1358
f 701//1359 724//1359 708//1359
f 708//1360 724//1360 723//1360
f 724//1361 698//1361 723//1361
f 723//1362 698//1362 697//1362
f 655//1363 721//1363 613//1363
f 613//1364 721//1364 718//1364
f 608//1365 609//1365 411//1365
f 411//1366 609//1366 410//1366
f 625//1367 660//1367 449//1367
f 449//1368 660//1368 609//1368
f 727//1369 728//1369 660//1369
f 660//1370 728//1370 628//1370
f 610//1371 730//1371 424//1371
f 424//1372 730//1372 727//1372
f 377//1373 329//1373 428//1373
f 428//1374 329//1374 429//1374
f 346//1375 619//1375 378//1375
f 378//1376 619//1376 396//1376
f 370//1377 369//1377 610//1377
f 610//1378 369//1378 730//1378
f 366//1379 379//1379 629//1379
f 629//1380 379//1380 408//1380
f 379//1381 311//1381 408//1381
f 408//1382 311//1382 409//1382
f 378//1383 396//1383 371//1383
f 371//1384 396//1384 398//1384
